TotalTime,GeneratorTime,ResistorTime,Period,StepPeriod
4723,4428,294,10,0.01
3947,3764,183,20,0.01
3768,3626,142,30,0.01
3895,3753,142,40,0.01
4113,3990,123,50,0.01
3668,3561,107,60,0.01
3721,3620,101,70,0.01
3894,3802,92,80,0.01
3722,3641,81,90,0.01
3705,3625,80,100,0.01
4038,3963,76,110,0.01
4173,4105,68,120,0.01
4029,3965,64,130,0.01
3684,3624,59,140,0.01
3992,3933,59,150,0.01
3792,3736,56,160,0.01
3684,3631,53,170,0.01
3861,3809,51,180,0.01
3664,3613,50,190,0.01
4143,4097,46,200,0.01
4054,4010,44,210,0.01
3801,3760,41,220,0.01
3765,3726,39,230,0.01
3862,3821,41,240,0.01
3609,3571,38,250,0.01
3655,3617,37,260,0.01
3694,3657,37,270,0.01
3841,3803,37,280,0.01
3863,3827,36,290,0.01
3725,3691,35,300,0.01
4132,4099,33,310,0.01
3658,3626,32,320,0.01
3668,3638,30,330,0.01
4131,4100,30,340,0.01
3684,3653,31,350,0.01
3603,3573,29,360,0.01
3804,3775,29,370,0.01
3817,3788,29,380,0.01
3610,3580,30,390,0.01
3584,3556,28,400,0.01
3662,3635,27,410,0.01
3983,3956,26,420,0.01
3663,3636,27,430,0.01
3593,3567,26,440,0.01
3841,3815,26,450,0.01
3700,3674,26,460,0.01
3890,3865,25,470,0.01
3807,3782,24,480,0.01
3624,3599,25,490,0.01
4214,4189,25,500,0.01
3794,3770,25,510,0.01
3552,3529,23,520,0.01
4160,4136,24,530,0.01
4164,4141,23,540,0.01
3637,3614,23,550,0.01
3754,3732,22,560,0.01
4142,4120,22,570,0.01
4042,4020,22,580,0.01
3711,3690,21,590,0.01
3938,3917,21,600,0.01
3731,3709,22,610,0.01
3737,3716,22,620,0.01
3633,3613,21,630,0.01
3740,3719,21,640,0.01
3706,3686,20,650,0.01
3565,3545,20,660,0.01
3788,3768,20,670,0.01
3797,3777,20,680,0.01
3594,3575,19,690,0.01
4213,4194,19,700,0.01
3532,3514,18,710,0.01
3667,3648,19,720,0.01
3628,3610,19,730,0.01
3623,3605,18,740,0.01
3622,3605,17,750,0.01
3748,3731,17,760,0.01
3658,3641,18,770,0.01
3551,3533,18,780,0.01
3976,3958,18,790,0.01
3642,3624,18,800,0.01
3690,3673,17,810,0.01
3925,3909,16,820,0.01
3683,3666,17,830,0.01
3803,3785,17,840,0.01
3541,3524,17,850,0.01
4225,4208,17,860,0.01
3607,3590,16,870,0.01
3833,3816,17,880,0.01
3571,3555,16,890,0.01
3645,3629,16,900,0.01
3608,3593,16,910,0.01
3585,3570,15,920,0.01
3587,3572,15,930,0.01
3933,3918,15,940,0.01
3603,3588,15,950,0.01
3663,3648,15,960,0.01
3998,3983,15,970,0.01
3984,3970,15,980,0.01
3679,3664,15,990,0.01
3682,3667,15,1000,0.01
