TotalTime,GeneratorTime,ResistorTime,Period,StepPeriod
502,233,268,10,1
349,163,186,20,1
259,112,147,30,1
239,89,150,40,1
236,106,130,50,1
184,74,110,60,1
167,62,105,70,1
157,59,98,80,1
138,54,84,90,1
127,47,80,100,1
114,39,75,110,1
107,40,68,120,1
97,35,62,130,1
93,35,58,140,1
88,31,57,150,1
88,32,56,160,1
88,31,57,170,1
87,35,52,180,1
74,27,48,190,1
72,25,47,200,1
66,23,43,210,1
77,32,45,220,1
61,22,39,230,1
66,27,39,240,1
55,19,36,250,1
52,18,35,260,1
53,19,34,270,1
52,17,35,280,1
50,17,33,290,1
49,17,32,300,1
48,16,31,310,1
46,15,30,320,1
46,16,29,330,1
42,14,28,340,1
43,15,29,350,1
42,14,28,360,1
41,13,28,370,1
42,14,28,380,1
40,13,27,390,1
40,14,26,400,1
47,16,31,410,1
39,13,26,420,1
38,13,25,430,1
35,11,24,440,1
34,11,24,450,1
41,14,27,460,1
34,11,23,470,1
33,11,22,480,1
38,12,26,490,1
33,10,23,500,1
33,10,22,510,1
34,11,23,520,1
32,10,22,530,1
32,11,21,540,1
30,9,20,550,1
29,9,20,560,1
30,10,20,570,1
28,9,19,580,1
28,8,19,590,1
30,10,20,600,1
28,9,19,610,1
28,9,19,620,1
28,9,19,630,1
30,11,19,640,1
26,8,18,650,1
29,11,18,660,1
28,9,19,670,1
27,9,18,680,1
25,8,17,690,1
24,7,17,700,1
24,7,17,710,1
34,14,21,720,1
26,9,18,730,1
24,8,16,740,1
24,8,16,750,1
24,8,16,760,1
24,8,16,770,1
24,8,16,780,1
22,7,16,790,1
22,7,15,800,1
22,7,15,810,1
24,7,17,820,1
24,7,17,830,1
23,7,16,840,1
25,8,17,850,1
23,7,15,860,1
25,8,17,870,1
21,7,15,880,1
31,11,20,890,1
22,7,15,900,1
22,7,15,910,1
22,7,14,920,1
30,11,19,930,1
21,7,14,940,1
22,7,15,950,1
21,6,14,960,1
22,7,15,970,1
21,7,14,980,1
21,7,14,990,1
21,7,14,1000,1
