<?xml version="1.0" encoding="UTF-8"?>
<svg xmlns="http://www.w3.org/2000/svg" xmlns:xlink="http://www.w3.org/1999/xlink" width="602pt" height="387pt" viewBox="0 0 602 387" version="1.1">
<defs>
<g>
<symbol overflow="visible" id="glyph0-0">
<path style="stroke:none;" d="M 0.390625 0 L 0.390625 -8.609375 L 7.21875 -8.609375 L 7.21875 0 Z M 6.140625 -1.078125 L 6.140625 -7.53125 L 1.46875 -7.53125 L 1.46875 -1.078125 Z "/>
</symbol>
<symbol overflow="visible" id="glyph0-1">
<path style="stroke:none;" d="M 3.25 -8.390625 C 4.332031 -8.390625 5.117188 -7.941406 5.609375 -7.046875 C 5.984375 -6.359375 6.171875 -5.410156 6.171875 -4.203125 C 6.171875 -3.066406 6 -2.125 5.65625 -1.375 C 5.164062 -0.300781 4.359375 0.234375 3.234375 0.234375 C 2.234375 0.234375 1.484375 -0.203125 0.984375 -1.078125 C 0.578125 -1.816406 0.375 -2.800781 0.375 -4.03125 C 0.375 -4.976562 0.5 -5.796875 0.75 -6.484375 C 1.207031 -7.753906 2.039062 -8.390625 3.25 -8.390625 Z M 3.234375 -0.734375 C 3.785156 -0.734375 4.222656 -0.972656 4.546875 -1.453125 C 4.867188 -1.941406 5.03125 -2.847656 5.03125 -4.171875 C 5.03125 -5.117188 4.910156 -5.898438 4.671875 -6.515625 C 4.441406 -7.128906 3.988281 -7.4375 3.3125 -7.4375 C 2.6875 -7.4375 2.226562 -7.144531 1.9375 -6.5625 C 1.65625 -5.976562 1.515625 -5.117188 1.515625 -3.984375 C 1.515625 -3.128906 1.609375 -2.441406 1.796875 -1.921875 C 2.078125 -1.128906 2.554688 -0.734375 3.234375 -0.734375 Z "/>
</symbol>
<symbol overflow="visible" id="glyph0-2">
<path style="stroke:none;" d="M 1.15625 -5.9375 L 1.15625 -6.75 C 1.914062 -6.820312 2.441406 -6.945312 2.734375 -7.125 C 3.035156 -7.300781 3.265625 -7.710938 3.421875 -8.359375 L 4.25 -8.359375 L 4.25 0 L 3.125 0 L 3.125 -5.9375 Z "/>
</symbol>
<symbol overflow="visible" id="glyph0-3">
<path style="stroke:none;" d="M 0.375 0 C 0.414062 -0.71875 0.566406 -1.34375 0.828125 -1.875 C 1.085938 -2.414062 1.59375 -2.90625 2.34375 -3.34375 L 3.46875 -4 C 3.96875 -4.289062 4.320312 -4.539062 4.53125 -4.75 C 4.851562 -5.070312 5.015625 -5.441406 5.015625 -5.859375 C 5.015625 -6.347656 4.863281 -6.734375 4.5625 -7.015625 C 4.269531 -7.304688 3.882812 -7.453125 3.40625 -7.453125 C 2.675781 -7.453125 2.175781 -7.179688 1.90625 -6.640625 C 1.75 -6.335938 1.664062 -5.929688 1.65625 -5.421875 L 0.578125 -5.421875 C 0.585938 -6.148438 0.722656 -6.742188 0.984375 -7.203125 C 1.441406 -8.015625 2.25 -8.421875 3.40625 -8.421875 C 4.363281 -8.421875 5.0625 -8.160156 5.5 -7.640625 C 5.945312 -7.117188 6.171875 -6.539062 6.171875 -5.90625 C 6.171875 -5.238281 5.9375 -4.664062 5.46875 -4.1875 C 5.195312 -3.90625 4.707031 -3.566406 4 -3.171875 L 3.1875 -2.734375 C 2.8125 -2.523438 2.515625 -2.320312 2.296875 -2.125 C 1.898438 -1.789062 1.648438 -1.414062 1.546875 -1 L 6.140625 -1 L 6.140625 0 Z "/>
</symbol>
<symbol overflow="visible" id="glyph0-4">
<path style="stroke:none;" d="M 3.125 0.234375 C 2.125 0.234375 1.398438 -0.0351562 0.953125 -0.578125 C 0.503906 -1.128906 0.28125 -1.796875 0.28125 -2.578125 L 1.390625 -2.578125 C 1.429688 -2.035156 1.53125 -1.640625 1.6875 -1.390625 C 1.96875 -0.953125 2.460938 -0.734375 3.171875 -0.734375 C 3.734375 -0.734375 4.179688 -0.878906 4.515625 -1.171875 C 4.847656 -1.472656 5.015625 -1.859375 5.015625 -2.328125 C 5.015625 -2.898438 4.835938 -3.300781 4.484375 -3.53125 C 4.128906 -3.769531 3.640625 -3.890625 3.015625 -3.890625 C 2.941406 -3.890625 2.867188 -3.882812 2.796875 -3.875 C 2.722656 -3.875 2.648438 -3.875 2.578125 -3.875 L 2.578125 -4.8125 C 2.691406 -4.789062 2.785156 -4.78125 2.859375 -4.78125 C 2.929688 -4.78125 3.007812 -4.78125 3.09375 -4.78125 C 3.488281 -4.78125 3.8125 -4.84375 4.0625 -4.96875 C 4.507812 -5.1875 4.734375 -5.578125 4.734375 -6.140625 C 4.734375 -6.554688 4.582031 -6.875 4.28125 -7.09375 C 3.988281 -7.320312 3.644531 -7.4375 3.25 -7.4375 C 2.550781 -7.4375 2.066406 -7.203125 1.796875 -6.734375 C 1.648438 -6.484375 1.566406 -6.117188 1.546875 -5.640625 L 0.5 -5.640625 C 0.5 -6.265625 0.625 -6.796875 0.875 -7.234375 C 1.300781 -8.015625 2.054688 -8.40625 3.140625 -8.40625 C 3.992188 -8.40625 4.65625 -8.210938 5.125 -7.828125 C 5.59375 -7.453125 5.828125 -6.898438 5.828125 -6.171875 C 5.828125 -5.660156 5.691406 -5.242188 5.421875 -4.921875 C 5.242188 -4.722656 5.019531 -4.566406 4.75 -4.453125 C 5.1875 -4.328125 5.53125 -4.09375 5.78125 -3.75 C 6.03125 -3.40625 6.15625 -2.984375 6.15625 -2.484375 C 6.15625 -1.679688 5.890625 -1.023438 5.359375 -0.515625 C 4.835938 -0.015625 4.09375 0.234375 3.125 0.234375 Z "/>
</symbol>
<symbol overflow="visible" id="glyph0-5">
<path style="stroke:none;" d="M 3.96875 -2.96875 L 3.96875 -6.78125 L 1.28125 -2.96875 Z M 3.984375 0 L 3.984375 -2.046875 L 0.3125 -2.046875 L 0.3125 -3.078125 L 4.15625 -8.421875 L 5.046875 -8.421875 L 5.046875 -2.96875 L 6.28125 -2.96875 L 6.28125 -2.046875 L 5.046875 -2.046875 L 5.046875 0 Z "/>
</symbol>
<symbol overflow="visible" id="glyph0-6">
<path style="stroke:none;" d="M 1.484375 -2.140625 C 1.554688 -1.535156 1.835938 -1.117188 2.328125 -0.890625 C 2.578125 -0.773438 2.863281 -0.71875 3.1875 -0.71875 C 3.8125 -0.71875 4.273438 -0.914062 4.578125 -1.3125 C 4.878906 -1.707031 5.03125 -2.148438 5.03125 -2.640625 C 5.03125 -3.222656 4.847656 -3.675781 4.484375 -4 C 4.128906 -4.320312 3.703125 -4.484375 3.203125 -4.484375 C 2.835938 -4.484375 2.523438 -4.410156 2.265625 -4.265625 C 2.003906 -4.128906 1.785156 -3.9375 1.609375 -3.6875 L 0.6875 -3.734375 L 1.328125 -8.25 L 5.6875 -8.25 L 5.6875 -7.234375 L 2.125 -7.234375 L 1.765625 -4.90625 C 1.960938 -5.050781 2.148438 -5.160156 2.328125 -5.234375 C 2.640625 -5.359375 3 -5.421875 3.40625 -5.421875 C 4.175781 -5.421875 4.828125 -5.171875 5.359375 -4.671875 C 5.898438 -4.179688 6.171875 -3.554688 6.171875 -2.796875 C 6.171875 -2.003906 5.921875 -1.300781 5.421875 -0.6875 C 4.929688 -0.0820312 4.148438 0.21875 3.078125 0.21875 C 2.398438 0.21875 1.796875 0.0234375 1.265625 -0.359375 C 0.742188 -0.742188 0.453125 -1.335938 0.390625 -2.140625 Z "/>
</symbol>
<symbol overflow="visible" id="glyph0-7">
<path style="stroke:none;" d="M 1.671875 -2.78125 C 1.703125 -2.289062 1.816406 -1.894531 2.015625 -1.59375 C 2.410156 -1.019531 3.09375 -0.734375 4.0625 -0.734375 C 4.5 -0.734375 4.898438 -0.796875 5.265625 -0.921875 C 5.960938 -1.160156 6.3125 -1.59375 6.3125 -2.21875 C 6.3125 -2.6875 6.160156 -3.019531 5.859375 -3.21875 C 5.566406 -3.414062 5.101562 -3.585938 4.46875 -3.734375 L 3.3125 -4 C 2.539062 -4.164062 2 -4.351562 1.6875 -4.5625 C 1.144531 -4.925781 0.875 -5.460938 0.875 -6.171875 C 0.875 -6.953125 1.140625 -7.585938 1.671875 -8.078125 C 2.203125 -8.578125 2.957031 -8.828125 3.9375 -8.828125 C 4.84375 -8.828125 5.609375 -8.609375 6.234375 -8.171875 C 6.867188 -7.734375 7.1875 -7.035156 7.1875 -6.078125 L 6.09375 -6.078125 C 6.03125 -6.546875 5.90625 -6.898438 5.71875 -7.140625 C 5.363281 -7.585938 4.757812 -7.8125 3.90625 -7.8125 C 3.21875 -7.8125 2.722656 -7.664062 2.421875 -7.375 C 2.117188 -7.09375 1.96875 -6.757812 1.96875 -6.375 C 1.96875 -5.957031 2.144531 -5.648438 2.5 -5.453125 C 2.726562 -5.328125 3.25 -5.171875 4.0625 -4.984375 L 5.28125 -4.703125 C 5.851562 -4.566406 6.300781 -4.382812 6.625 -4.15625 C 7.164062 -3.757812 7.4375 -3.175781 7.4375 -2.40625 C 7.4375 -1.457031 7.085938 -0.773438 6.390625 -0.359375 C 5.703125 0.046875 4.898438 0.25 3.984375 0.25 C 2.910156 0.25 2.070312 -0.0195312 1.46875 -0.5625 C 0.863281 -1.113281 0.566406 -1.851562 0.578125 -2.78125 Z M 4.03125 -8.84375 Z "/>
</symbol>
<symbol overflow="visible" id="glyph0-8">
<path style="stroke:none;" d="M 0.78125 -6.25 L 1.84375 -6.25 L 1.84375 0 L 0.78125 0 Z M 0.78125 -8.609375 L 1.84375 -8.609375 L 1.84375 -7.40625 L 0.78125 -7.40625 Z "/>
</symbol>
<symbol overflow="visible" id="glyph0-9">
<path style="stroke:none;" d="M 0.78125 -6.28125 L 1.8125 -6.28125 L 1.8125 -5.390625 C 2.0625 -5.691406 2.289062 -5.914062 2.5 -6.0625 C 2.84375 -6.300781 3.238281 -6.421875 3.6875 -6.421875 C 4.1875 -6.421875 4.585938 -6.296875 4.890625 -6.046875 C 5.054688 -5.910156 5.210938 -5.703125 5.359375 -5.421875 C 5.585938 -5.765625 5.859375 -6.015625 6.171875 -6.171875 C 6.492188 -6.335938 6.851562 -6.421875 7.25 -6.421875 C 8.09375 -6.421875 8.664062 -6.113281 8.96875 -5.5 C 9.132812 -5.175781 9.21875 -4.734375 9.21875 -4.171875 L 9.21875 0 L 8.125 0 L 8.125 -4.359375 C 8.125 -4.773438 8.019531 -5.0625 7.8125 -5.21875 C 7.601562 -5.375 7.347656 -5.453125 7.046875 -5.453125 C 6.628906 -5.453125 6.269531 -5.3125 5.96875 -5.03125 C 5.675781 -4.757812 5.53125 -4.300781 5.53125 -3.65625 L 5.53125 0 L 4.453125 0 L 4.453125 -4.09375 C 4.453125 -4.519531 4.398438 -4.832031 4.296875 -5.03125 C 4.140625 -5.320312 3.84375 -5.46875 3.40625 -5.46875 C 3.007812 -5.46875 2.644531 -5.3125 2.3125 -5 C 1.988281 -4.695312 1.828125 -4.140625 1.828125 -3.328125 L 1.828125 0 L 0.78125 0 Z "/>
</symbol>
<symbol overflow="visible" id="glyph0-10">
<path style="stroke:none;" d="M 1.828125 -6.28125 L 1.828125 -2.109375 C 1.828125 -1.785156 1.878906 -1.523438 1.984375 -1.328125 C 2.171875 -0.953125 2.519531 -0.765625 3.03125 -0.765625 C 3.757812 -0.765625 4.257812 -1.09375 4.53125 -1.75 C 4.675781 -2.101562 4.75 -2.582031 4.75 -3.1875 L 4.75 -6.28125 L 5.796875 -6.28125 L 5.796875 0 L 4.8125 0 L 4.8125 -0.921875 C 4.675781 -0.679688 4.507812 -0.484375 4.3125 -0.328125 C 3.90625 0.00390625 3.414062 0.171875 2.84375 0.171875 C 1.945312 0.171875 1.335938 -0.128906 1.015625 -0.734375 C 0.835938 -1.046875 0.75 -1.472656 0.75 -2.015625 L 0.75 -6.28125 Z M 3.28125 -6.421875 Z "/>
</symbol>
<symbol overflow="visible" id="glyph0-11">
<path style="stroke:none;" d="M 0.796875 -8.609375 L 1.859375 -8.609375 L 1.859375 0 L 0.796875 0 Z "/>
</symbol>
<symbol overflow="visible" id="glyph0-12">
<path style="stroke:none;" d="M 1.578125 -1.671875 C 1.578125 -1.367188 1.6875 -1.128906 1.90625 -0.953125 C 2.132812 -0.773438 2.398438 -0.6875 2.703125 -0.6875 C 3.078125 -0.6875 3.4375 -0.769531 3.78125 -0.9375 C 4.375 -1.226562 4.671875 -1.695312 4.671875 -2.34375 L 4.671875 -3.1875 C 4.535156 -3.113281 4.363281 -3.046875 4.15625 -2.984375 C 3.957031 -2.929688 3.757812 -2.894531 3.5625 -2.875 L 2.9375 -2.796875 C 2.550781 -2.742188 2.257812 -2.660156 2.0625 -2.546875 C 1.738281 -2.367188 1.578125 -2.078125 1.578125 -1.671875 Z M 4.140625 -3.796875 C 4.378906 -3.828125 4.539062 -3.929688 4.625 -4.109375 C 4.664062 -4.203125 4.6875 -4.335938 4.6875 -4.515625 C 4.6875 -4.867188 4.554688 -5.125 4.296875 -5.28125 C 4.046875 -5.445312 3.6875 -5.53125 3.21875 -5.53125 C 2.664062 -5.53125 2.273438 -5.382812 2.046875 -5.09375 C 1.910156 -4.925781 1.820312 -4.679688 1.78125 -4.359375 L 0.796875 -4.359375 C 0.816406 -5.128906 1.066406 -5.664062 1.546875 -5.96875 C 2.035156 -6.269531 2.597656 -6.421875 3.234375 -6.421875 C 3.972656 -6.421875 4.570312 -6.28125 5.03125 -6 C 5.488281 -5.71875 5.71875 -5.28125 5.71875 -4.6875 L 5.71875 -1.078125 C 5.71875 -0.972656 5.738281 -0.882812 5.78125 -0.8125 C 5.832031 -0.75 5.929688 -0.71875 6.078125 -0.71875 C 6.117188 -0.71875 6.164062 -0.71875 6.21875 -0.71875 C 6.28125 -0.726562 6.347656 -0.738281 6.421875 -0.75 L 6.421875 0.03125 C 6.253906 0.0703125 6.125 0.0976562 6.03125 0.109375 C 5.945312 0.128906 5.832031 0.140625 5.6875 0.140625 C 5.320312 0.140625 5.0625 0.0078125 4.90625 -0.25 C 4.8125 -0.382812 4.75 -0.578125 4.71875 -0.828125 C 4.5 -0.546875 4.1875 -0.300781 3.78125 -0.09375 C 3.382812 0.113281 2.945312 0.21875 2.46875 0.21875 C 1.882812 0.21875 1.40625 0.0390625 1.03125 -0.3125 C 0.664062 -0.664062 0.484375 -1.109375 0.484375 -1.640625 C 0.484375 -2.222656 0.664062 -2.675781 1.03125 -3 C 1.394531 -3.320312 1.867188 -3.519531 2.453125 -3.59375 Z M 3.265625 -6.421875 Z "/>
</symbol>
<symbol overflow="visible" id="glyph0-13">
<path style="stroke:none;" d="M 0.984375 -8.03125 L 2.046875 -8.03125 L 2.046875 -6.28125 L 3.046875 -6.28125 L 3.046875 -5.421875 L 2.046875 -5.421875 L 2.046875 -1.3125 C 2.046875 -1.09375 2.125 -0.945312 2.28125 -0.875 C 2.351562 -0.832031 2.488281 -0.8125 2.6875 -0.8125 C 2.738281 -0.8125 2.789062 -0.8125 2.84375 -0.8125 C 2.90625 -0.820312 2.972656 -0.828125 3.046875 -0.828125 L 3.046875 0 C 2.929688 0.03125 2.804688 0.0507812 2.671875 0.0625 C 2.546875 0.0820312 2.40625 0.09375 2.25 0.09375 C 1.757812 0.09375 1.425781 -0.03125 1.25 -0.28125 C 1.070312 -0.53125 0.984375 -0.859375 0.984375 -1.265625 L 0.984375 -5.421875 L 0.140625 -5.421875 L 0.140625 -6.28125 L 0.984375 -6.28125 Z "/>
</symbol>
<symbol overflow="visible" id="glyph0-14">
<path style="stroke:none;" d="M 3.390625 -6.421875 C 3.835938 -6.421875 4.269531 -6.316406 4.6875 -6.109375 C 5.101562 -5.898438 5.421875 -5.628906 5.640625 -5.296875 C 5.847656 -4.972656 5.988281 -4.601562 6.0625 -4.1875 C 6.125 -3.894531 6.15625 -3.429688 6.15625 -2.796875 L 1.546875 -2.796875 C 1.566406 -2.160156 1.71875 -1.648438 2 -1.265625 C 2.28125 -0.878906 2.71875 -0.6875 3.3125 -0.6875 C 3.863281 -0.6875 4.300781 -0.867188 4.625 -1.234375 C 4.8125 -1.441406 4.945312 -1.6875 5.03125 -1.96875 L 6.0625 -1.96875 C 6.039062 -1.738281 5.953125 -1.484375 5.796875 -1.203125 C 5.640625 -0.921875 5.46875 -0.6875 5.28125 -0.5 C 4.957031 -0.1875 4.554688 0.0195312 4.078125 0.125 C 3.828125 0.1875 3.539062 0.21875 3.21875 0.21875 C 2.4375 0.21875 1.773438 -0.0625 1.234375 -0.625 C 0.691406 -1.195312 0.421875 -1.992188 0.421875 -3.015625 C 0.421875 -4.023438 0.691406 -4.84375 1.234375 -5.46875 C 1.785156 -6.101562 2.503906 -6.421875 3.390625 -6.421875 Z M 5.0625 -3.640625 C 5.019531 -4.097656 4.921875 -4.460938 4.765625 -4.734375 C 4.484375 -5.242188 4.003906 -5.5 3.328125 -5.5 C 2.835938 -5.5 2.425781 -5.320312 2.09375 -4.96875 C 1.769531 -4.625 1.597656 -4.179688 1.578125 -3.640625 Z M 3.28125 -6.421875 Z "/>
</symbol>
<symbol overflow="visible" id="glyph0-15">
<path style="stroke:none;" d="M 1.4375 -3.0625 C 1.4375 -2.394531 1.578125 -1.832031 1.859375 -1.375 C 2.148438 -0.925781 2.609375 -0.703125 3.234375 -0.703125 C 3.722656 -0.703125 4.125 -0.910156 4.4375 -1.328125 C 4.757812 -1.742188 4.921875 -2.347656 4.921875 -3.140625 C 4.921875 -3.929688 4.753906 -4.515625 4.421875 -4.890625 C 4.097656 -5.273438 3.703125 -5.46875 3.234375 -5.46875 C 2.703125 -5.46875 2.269531 -5.265625 1.9375 -4.859375 C 1.601562 -4.453125 1.4375 -3.851562 1.4375 -3.0625 Z M 3.03125 -6.390625 C 3.507812 -6.390625 3.910156 -6.285156 4.234375 -6.078125 C 4.421875 -5.960938 4.632812 -5.757812 4.875 -5.46875 L 4.875 -8.640625 L 5.890625 -8.640625 L 5.890625 0 L 4.9375 0 L 4.9375 -0.875 C 4.695312 -0.488281 4.40625 -0.207031 4.0625 -0.03125 C 3.726562 0.132812 3.34375 0.21875 2.90625 0.21875 C 2.207031 0.21875 1.601562 -0.0703125 1.09375 -0.65625 C 0.582031 -1.25 0.328125 -2.03125 0.328125 -3 C 0.328125 -3.914062 0.5625 -4.707031 1.03125 -5.375 C 1.5 -6.050781 2.164062 -6.390625 3.03125 -6.390625 Z "/>
</symbol>
<symbol overflow="visible" id="glyph0-16">
<path style="stroke:none;" d=""/>
</symbol>
<symbol overflow="visible" id="glyph0-17">
<path style="stroke:none;" d="M 3.421875 -0.703125 C 3.910156 -0.703125 4.316406 -0.910156 4.640625 -1.328125 C 4.972656 -1.742188 5.140625 -2.359375 5.140625 -3.171875 C 5.140625 -3.671875 5.066406 -4.101562 4.921875 -4.46875 C 4.648438 -5.15625 4.148438 -5.5 3.421875 -5.5 C 2.691406 -5.5 2.191406 -5.132812 1.921875 -4.40625 C 1.773438 -4.019531 1.703125 -3.523438 1.703125 -2.921875 C 1.703125 -2.429688 1.773438 -2.019531 1.921875 -1.6875 C 2.191406 -1.03125 2.691406 -0.703125 3.421875 -0.703125 Z M 0.6875 -6.25 L 1.71875 -6.25 L 1.71875 -5.421875 C 1.925781 -5.703125 2.15625 -5.921875 2.40625 -6.078125 C 2.757812 -6.304688 3.175781 -6.421875 3.65625 -6.421875 C 4.375 -6.421875 4.976562 -6.148438 5.46875 -5.609375 C 5.96875 -5.066406 6.21875 -4.289062 6.21875 -3.28125 C 6.21875 -1.90625 5.859375 -0.925781 5.140625 -0.34375 C 4.691406 0.03125 4.164062 0.21875 3.5625 0.21875 C 3.09375 0.21875 2.695312 0.113281 2.375 -0.09375 C 2.1875 -0.21875 1.976562 -0.421875 1.75 -0.703125 L 1.75 2.5 L 0.6875 2.5 Z "/>
</symbol>
<symbol overflow="visible" id="glyph0-18">
<path style="stroke:none;" d="M 0.796875 -6.28125 L 1.8125 -6.28125 L 1.8125 -5.1875 C 1.882812 -5.40625 2.082031 -5.664062 2.40625 -5.96875 C 2.726562 -6.269531 3.097656 -6.421875 3.515625 -6.421875 C 3.535156 -6.421875 3.566406 -6.414062 3.609375 -6.40625 C 3.660156 -6.40625 3.742188 -6.398438 3.859375 -6.390625 L 3.859375 -5.28125 C 3.796875 -5.289062 3.738281 -5.296875 3.6875 -5.296875 C 3.632812 -5.296875 3.578125 -5.296875 3.515625 -5.296875 C 2.984375 -5.296875 2.570312 -5.125 2.28125 -4.78125 C 2 -4.445312 1.859375 -4.054688 1.859375 -3.609375 L 1.859375 0 L 0.796875 0 Z "/>
</symbol>
<symbol overflow="visible" id="glyph0-19">
<path style="stroke:none;" d="M 3.265625 -0.6875 C 3.960938 -0.6875 4.441406 -0.945312 4.703125 -1.46875 C 4.960938 -2 5.09375 -2.585938 5.09375 -3.234375 C 5.09375 -3.828125 5 -4.304688 4.8125 -4.671875 C 4.507812 -5.242188 4 -5.53125 3.28125 -5.53125 C 2.632812 -5.53125 2.164062 -5.285156 1.875 -4.796875 C 1.582031 -4.304688 1.4375 -3.710938 1.4375 -3.015625 C 1.4375 -2.347656 1.582031 -1.789062 1.875 -1.34375 C 2.164062 -0.90625 2.628906 -0.6875 3.265625 -0.6875 Z M 3.3125 -6.453125 C 4.113281 -6.453125 4.789062 -6.179688 5.34375 -5.640625 C 5.90625 -5.109375 6.1875 -4.316406 6.1875 -3.265625 C 6.1875 -2.253906 5.941406 -1.414062 5.453125 -0.75 C 4.960938 -0.09375 4.203125 0.234375 3.171875 0.234375 C 2.304688 0.234375 1.617188 -0.0546875 1.109375 -0.640625 C 0.597656 -1.234375 0.34375 -2.019531 0.34375 -3 C 0.34375 -4.050781 0.609375 -4.890625 1.140625 -5.515625 C 1.679688 -6.140625 2.40625 -6.453125 3.3125 -6.453125 Z M 3.265625 -6.421875 Z "/>
</symbol>
<symbol overflow="visible" id="glyph0-20">
<path style="stroke:none;" d="M 3.546875 -8.75 C 2.929688 -7.5625 2.535156 -6.6875 2.359375 -6.125 C 2.078125 -5.257812 1.9375 -4.269531 1.9375 -3.15625 C 1.9375 -2.019531 2.097656 -0.984375 2.421875 -0.046875 C 2.609375 0.535156 2.988281 1.367188 3.5625 2.453125 L 2.859375 2.453125 C 2.285156 1.554688 1.929688 0.984375 1.796875 0.734375 C 1.660156 0.492188 1.515625 0.160156 1.359375 -0.265625 C 1.140625 -0.835938 0.984375 -1.453125 0.890625 -2.109375 C 0.847656 -2.453125 0.828125 -2.773438 0.828125 -3.078125 C 0.828125 -4.234375 1.007812 -5.265625 1.375 -6.171875 C 1.601562 -6.742188 2.082031 -7.601562 2.8125 -8.75 Z "/>
</symbol>
<symbol overflow="visible" id="glyph0-21">
<path style="stroke:none;" d="M 1.40625 -1.96875 C 1.4375 -1.613281 1.523438 -1.34375 1.671875 -1.15625 C 1.929688 -0.820312 2.390625 -0.65625 3.046875 -0.65625 C 3.441406 -0.65625 3.785156 -0.738281 4.078125 -0.90625 C 4.378906 -1.070312 4.53125 -1.332031 4.53125 -1.6875 C 4.53125 -1.957031 4.410156 -2.164062 4.171875 -2.3125 C 4.015625 -2.394531 3.710938 -2.492188 3.265625 -2.609375 L 2.421875 -2.8125 C 1.890625 -2.945312 1.5 -3.097656 1.25 -3.265625 C 0.789062 -3.546875 0.5625 -3.941406 0.5625 -4.453125 C 0.5625 -5.046875 0.773438 -5.523438 1.203125 -5.890625 C 1.628906 -6.253906 2.207031 -6.4375 2.9375 -6.4375 C 3.875 -6.4375 4.550781 -6.160156 4.96875 -5.609375 C 5.238281 -5.253906 5.367188 -4.875 5.359375 -4.46875 L 4.359375 -4.46875 C 4.335938 -4.707031 4.253906 -4.925781 4.109375 -5.125 C 3.867188 -5.394531 3.445312 -5.53125 2.84375 -5.53125 C 2.445312 -5.53125 2.144531 -5.453125 1.9375 -5.296875 C 1.738281 -5.148438 1.640625 -4.953125 1.640625 -4.703125 C 1.640625 -4.429688 1.773438 -4.210938 2.046875 -4.046875 C 2.203125 -3.953125 2.429688 -3.867188 2.734375 -3.796875 L 3.421875 -3.625 C 4.179688 -3.4375 4.691406 -3.257812 4.953125 -3.09375 C 5.359375 -2.820312 5.5625 -2.394531 5.5625 -1.8125 C 5.5625 -1.257812 5.347656 -0.78125 4.921875 -0.375 C 4.503906 0.03125 3.863281 0.234375 3 0.234375 C 2.0625 0.234375 1.394531 0.0234375 1 -0.390625 C 0.613281 -0.816406 0.410156 -1.34375 0.390625 -1.96875 Z M 2.953125 -6.421875 Z "/>
</symbol>
<symbol overflow="visible" id="glyph0-22">
<path style="stroke:none;" d="M 0.421875 2.453125 C 1.035156 1.242188 1.4375 0.359375 1.625 -0.203125 C 1.894531 -1.035156 2.03125 -2.019531 2.03125 -3.15625 C 2.03125 -4.28125 1.867188 -5.3125 1.546875 -6.25 C 1.359375 -6.832031 0.976562 -7.664062 0.40625 -8.75 L 1.109375 -8.75 C 1.710938 -7.789062 2.078125 -7.195312 2.203125 -6.96875 C 2.328125 -6.75 2.460938 -6.441406 2.609375 -6.046875 C 2.796875 -5.554688 2.929688 -5.070312 3.015625 -4.59375 C 3.097656 -4.113281 3.140625 -3.65625 3.140625 -3.21875 C 3.140625 -2.0625 2.953125 -1.03125 2.578125 -0.125 C 2.347656 0.457031 1.875 1.316406 1.15625 2.453125 Z "/>
</symbol>
<symbol overflow="visible" id="glyph0-23">
<path style="stroke:none;" d="M 0.546875 -2.5625 L 0.546875 -3.546875 L 3.09375 -3.546875 L 3.09375 -6.125 L 4.09375 -6.125 L 4.09375 -3.546875 L 6.65625 -3.546875 L 6.65625 -2.5625 L 4.09375 -2.5625 L 4.09375 0 L 3.09375 0 L 3.09375 -2.5625 Z "/>
</symbol>
<symbol overflow="visible" id="glyph0-24">
<path style="stroke:none;" d="M 1.03125 -8.609375 L 7 -8.609375 L 7 -7.546875 L 2.1875 -7.546875 L 2.1875 -4.9375 L 6.421875 -4.9375 L 6.421875 -3.921875 L 2.1875 -3.921875 L 2.1875 0 L 1.03125 0 Z "/>
</symbol>
<symbol overflow="visible" id="glyph0-25">
<path style="stroke:none;" d="M 0.921875 -8.609375 L 2.296875 -8.609375 L 6.640625 -1.640625 L 6.640625 -8.609375 L 7.75 -8.609375 L 7.75 0 L 6.4375 0 L 2.03125 -6.96875 L 2.03125 0 L 0.921875 0 Z M 4.25 -8.609375 Z "/>
</symbol>
<symbol overflow="visible" id="glyph0-26">
<path style="stroke:none;" d="M 4.15625 -4.96875 C 4.644531 -4.96875 5.023438 -5.035156 5.296875 -5.171875 C 5.722656 -5.390625 5.9375 -5.773438 5.9375 -6.328125 C 5.9375 -6.890625 5.707031 -7.269531 5.25 -7.46875 C 5 -7.582031 4.617188 -7.640625 4.109375 -7.640625 L 2.03125 -7.640625 L 2.03125 -4.96875 Z M 4.546875 -1 C 5.253906 -1 5.765625 -1.207031 6.078125 -1.625 C 6.265625 -1.882812 6.359375 -2.195312 6.359375 -2.5625 C 6.359375 -3.1875 6.078125 -3.613281 5.515625 -3.84375 C 5.222656 -3.96875 4.832031 -4.03125 4.34375 -4.03125 L 2.03125 -4.03125 L 2.03125 -1 Z M 0.890625 -8.609375 L 4.578125 -8.609375 C 5.585938 -8.609375 6.304688 -8.304688 6.734375 -7.703125 C 6.984375 -7.347656 7.109375 -6.9375 7.109375 -6.46875 C 7.109375 -5.925781 6.953125 -5.484375 6.640625 -5.140625 C 6.484375 -4.953125 6.253906 -4.785156 5.953125 -4.640625 C 6.390625 -4.472656 6.71875 -4.28125 6.9375 -4.0625 C 7.332031 -3.6875 7.53125 -3.171875 7.53125 -2.515625 C 7.53125 -1.960938 7.351562 -1.460938 7 -1.015625 C 6.476562 -0.335938 5.65625 0 4.53125 0 L 0.890625 0 Z "/>
</symbol>
<symbol overflow="visible" id="glyph0-27">
<path style="stroke:none;" d="M 0.78125 -6.28125 L 1.78125 -6.28125 L 1.78125 -5.390625 C 2.070312 -5.753906 2.382812 -6.015625 2.71875 -6.171875 C 3.050781 -6.335938 3.421875 -6.421875 3.828125 -6.421875 C 4.710938 -6.421875 5.3125 -6.109375 5.625 -5.484375 C 5.800781 -5.140625 5.890625 -4.65625 5.890625 -4.03125 L 5.890625 0 L 4.8125 0 L 4.8125 -3.953125 C 4.8125 -4.335938 4.753906 -4.644531 4.640625 -4.875 C 4.453125 -5.269531 4.113281 -5.46875 3.625 -5.46875 C 3.375 -5.46875 3.171875 -5.441406 3.015625 -5.390625 C 2.722656 -5.304688 2.46875 -5.132812 2.25 -4.875 C 2.070312 -4.664062 1.957031 -4.453125 1.90625 -4.234375 C 1.851562 -4.015625 1.828125 -3.695312 1.828125 -3.28125 L 1.828125 0 L 0.78125 0 Z M 3.25 -6.421875 Z "/>
</symbol>
<symbol overflow="visible" id="glyph0-28">
<path style="stroke:none;" d="M 0.9375 -8.609375 L 2.125 -8.609375 L 2.125 -5.046875 L 6.59375 -5.046875 L 6.59375 -8.609375 L 7.78125 -8.609375 L 7.78125 0 L 6.59375 0 L 6.59375 -4.03125 L 2.125 -4.03125 L 2.125 0 L 0.9375 0 Z "/>
</symbol>
<symbol overflow="visible" id="glyph0-29">
<path style="stroke:none;" d="M 4.6875 -6.28125 L 5.859375 -6.28125 C 5.710938 -5.875 5.382812 -4.953125 4.875 -3.515625 C 4.488281 -2.441406 4.164062 -1.566406 3.90625 -0.890625 C 3.300781 0.710938 2.875 1.691406 2.625 2.046875 C 2.375 2.398438 1.941406 2.578125 1.328125 2.578125 C 1.179688 2.578125 1.066406 2.566406 0.984375 2.546875 C 0.910156 2.535156 0.8125 2.515625 0.6875 2.484375 L 0.6875 1.53125 C 0.875 1.582031 1.007812 1.613281 1.09375 1.625 C 1.175781 1.632812 1.25 1.640625 1.3125 1.640625 C 1.5 1.640625 1.640625 1.609375 1.734375 1.546875 C 1.828125 1.484375 1.90625 1.40625 1.96875 1.3125 C 1.988281 1.28125 2.054688 1.117188 2.171875 0.828125 C 2.296875 0.535156 2.382812 0.320312 2.4375 0.1875 L 0.125 -6.28125 L 1.3125 -6.28125 L 3 -1.171875 Z M 3 -6.421875 Z "/>
</symbol>
<symbol overflow="visible" id="glyph0-30">
<path style="stroke:none;" d="M 0.6875 -8.640625 L 1.71875 -8.640625 L 1.71875 -5.515625 C 1.945312 -5.816406 2.222656 -6.046875 2.546875 -6.203125 C 2.867188 -6.359375 3.21875 -6.4375 3.59375 -6.4375 C 4.375 -6.4375 5.003906 -6.164062 5.484375 -5.625 C 5.972656 -5.09375 6.21875 -4.304688 6.21875 -3.265625 C 6.21875 -2.265625 5.976562 -1.4375 5.5 -0.78125 C 5.019531 -0.125 4.351562 0.203125 3.5 0.203125 C 3.019531 0.203125 2.617188 0.0859375 2.296875 -0.140625 C 2.097656 -0.285156 1.890625 -0.503906 1.671875 -0.796875 L 1.671875 0 L 0.6875 0 Z M 3.4375 -0.734375 C 4.007812 -0.734375 4.4375 -0.957031 4.71875 -1.40625 C 5 -1.863281 5.140625 -2.460938 5.140625 -3.203125 C 5.140625 -3.867188 5 -4.414062 4.71875 -4.84375 C 4.4375 -5.28125 4.019531 -5.5 3.46875 -5.5 C 2.988281 -5.5 2.566406 -5.320312 2.203125 -4.96875 C 1.835938 -4.613281 1.65625 -4.023438 1.65625 -3.203125 C 1.65625 -2.617188 1.726562 -2.140625 1.875 -1.765625 C 2.15625 -1.078125 2.675781 -0.734375 3.4375 -0.734375 Z "/>
</symbol>
<symbol overflow="visible" id="glyph1-0">
<path style="stroke:none;" d="M 0 -0.390625 L -8.609375 -0.390625 L -8.609375 -7.21875 L 0 -7.21875 Z M -1.078125 -6.140625 L -7.53125 -6.140625 L -7.53125 -1.46875 L -1.078125 -1.46875 Z "/>
</symbol>
<symbol overflow="visible" id="glyph1-1">
<path style="stroke:none;" d="M -8.390625 -3.25 C -8.390625 -4.332031 -7.941406 -5.117188 -7.046875 -5.609375 C -6.359375 -5.984375 -5.410156 -6.171875 -4.203125 -6.171875 C -3.066406 -6.171875 -2.125 -6 -1.375 -5.65625 C -0.300781 -5.164062 0.234375 -4.359375 0.234375 -3.234375 C 0.234375 -2.234375 -0.203125 -1.484375 -1.078125 -0.984375 C -1.816406 -0.578125 -2.800781 -0.375 -4.03125 -0.375 C -4.976562 -0.375 -5.796875 -0.5 -6.484375 -0.75 C -7.753906 -1.207031 -8.390625 -2.039062 -8.390625 -3.25 Z M -0.734375 -3.234375 C -0.734375 -3.785156 -0.972656 -4.222656 -1.453125 -4.546875 C -1.941406 -4.867188 -2.847656 -5.03125 -4.171875 -5.03125 C -5.117188 -5.03125 -5.898438 -4.910156 -6.515625 -4.671875 C -7.128906 -4.441406 -7.4375 -3.988281 -7.4375 -3.3125 C -7.4375 -2.6875 -7.144531 -2.226562 -6.5625 -1.9375 C -5.976562 -1.65625 -5.117188 -1.515625 -3.984375 -1.515625 C -3.128906 -1.515625 -2.441406 -1.609375 -1.921875 -1.796875 C -1.128906 -2.078125 -0.734375 -2.554688 -0.734375 -3.234375 Z "/>
</symbol>
<symbol overflow="visible" id="glyph1-2">
<path style="stroke:none;" d="M -5.9375 -1.15625 L -6.75 -1.15625 C -6.820312 -1.914062 -6.945312 -2.441406 -7.125 -2.734375 C -7.300781 -3.035156 -7.710938 -3.265625 -8.359375 -3.421875 L -8.359375 -4.25 L 0 -4.25 L 0 -3.125 L -5.9375 -3.125 Z "/>
</symbol>
<symbol overflow="visible" id="glyph1-3">
<path style="stroke:none;" d="M 0.234375 -3.125 C 0.234375 -2.125 -0.0351562 -1.398438 -0.578125 -0.953125 C -1.128906 -0.503906 -1.796875 -0.28125 -2.578125 -0.28125 L -2.578125 -1.390625 C -2.035156 -1.429688 -1.640625 -1.53125 -1.390625 -1.6875 C -0.953125 -1.96875 -0.734375 -2.460938 -0.734375 -3.171875 C -0.734375 -3.734375 -0.878906 -4.179688 -1.171875 -4.515625 C -1.472656 -4.847656 -1.859375 -5.015625 -2.328125 -5.015625 C -2.898438 -5.015625 -3.300781 -4.835938 -3.53125 -4.484375 C -3.769531 -4.128906 -3.890625 -3.640625 -3.890625 -3.015625 C -3.890625 -2.941406 -3.882812 -2.867188 -3.875 -2.796875 C -3.875 -2.722656 -3.875 -2.648438 -3.875 -2.578125 L -4.8125 -2.578125 C -4.789062 -2.691406 -4.78125 -2.785156 -4.78125 -2.859375 C -4.78125 -2.929688 -4.78125 -3.007812 -4.78125 -3.09375 C -4.78125 -3.488281 -4.84375 -3.8125 -4.96875 -4.0625 C -5.1875 -4.507812 -5.578125 -4.734375 -6.140625 -4.734375 C -6.554688 -4.734375 -6.875 -4.582031 -7.09375 -4.28125 C -7.320312 -3.988281 -7.4375 -3.644531 -7.4375 -3.25 C -7.4375 -2.550781 -7.203125 -2.066406 -6.734375 -1.796875 C -6.484375 -1.648438 -6.117188 -1.566406 -5.640625 -1.546875 L -5.640625 -0.5 C -6.265625 -0.5 -6.796875 -0.625 -7.234375 -0.875 C -8.015625 -1.300781 -8.40625 -2.054688 -8.40625 -3.140625 C -8.40625 -3.992188 -8.210938 -4.65625 -7.828125 -5.125 C -7.453125 -5.59375 -6.898438 -5.828125 -6.171875 -5.828125 C -5.660156 -5.828125 -5.242188 -5.691406 -4.921875 -5.421875 C -4.722656 -5.242188 -4.566406 -5.019531 -4.453125 -4.75 C -4.328125 -5.1875 -4.09375 -5.53125 -3.75 -5.78125 C -3.40625 -6.03125 -2.984375 -6.15625 -2.484375 -6.15625 C -1.679688 -6.15625 -1.023438 -5.890625 -0.515625 -5.359375 C -0.015625 -4.835938 0.234375 -4.09375 0.234375 -3.125 Z "/>
</symbol>
<symbol overflow="visible" id="glyph1-4">
<path style="stroke:none;" d="M -2.140625 -1.484375 C -1.535156 -1.554688 -1.117188 -1.835938 -0.890625 -2.328125 C -0.773438 -2.578125 -0.71875 -2.863281 -0.71875 -3.1875 C -0.71875 -3.8125 -0.914062 -4.273438 -1.3125 -4.578125 C -1.707031 -4.878906 -2.148438 -5.03125 -2.640625 -5.03125 C -3.222656 -5.03125 -3.675781 -4.847656 -4 -4.484375 C -4.320312 -4.128906 -4.484375 -3.703125 -4.484375 -3.203125 C -4.484375 -2.835938 -4.410156 -2.523438 -4.265625 -2.265625 C -4.128906 -2.003906 -3.9375 -1.785156 -3.6875 -1.609375 L -3.734375 -0.6875 L -8.25 -1.328125 L -8.25 -5.6875 L -7.234375 -5.6875 L -7.234375 -2.125 L -4.90625 -1.765625 C -5.050781 -1.960938 -5.160156 -2.148438 -5.234375 -2.328125 C -5.359375 -2.640625 -5.421875 -3 -5.421875 -3.40625 C -5.421875 -4.175781 -5.171875 -4.828125 -4.671875 -5.359375 C -4.179688 -5.898438 -3.554688 -6.171875 -2.796875 -6.171875 C -2.003906 -6.171875 -1.300781 -5.921875 -0.6875 -5.421875 C -0.0820312 -4.929688 0.21875 -4.148438 0.21875 -3.078125 C 0.21875 -2.398438 0.0234375 -1.796875 -0.359375 -1.265625 C -0.742188 -0.742188 -1.335938 -0.453125 -2.140625 -0.390625 Z "/>
</symbol>
<symbol overflow="visible" id="glyph1-5">
<path style="stroke:none;" d="M -8.25 -6.28125 L -7.328125 -6.28125 C -7.066406 -6.007812 -6.613281 -5.648438 -5.96875 -5.203125 C -5.320312 -4.753906 -4.625 -4.359375 -3.875 -4.015625 C -3.132812 -3.671875 -2.46875 -3.410156 -1.875 -3.234375 C -1.488281 -3.128906 -0.863281 -2.984375 0 -2.796875 L 0 -1.640625 C -1.601562 -1.898438 -3.195312 -2.484375 -4.78125 -3.390625 C -5.707031 -3.929688 -6.507812 -4.492188 -7.1875 -5.078125 L -7.1875 -0.4375 L -8.25 -0.4375 Z "/>
</symbol>
<symbol overflow="visible" id="glyph1-6">
<path style="stroke:none;" d="M -8.828125 -4.640625 C -8.828125 -5.441406 -8.671875 -6.140625 -8.359375 -6.734375 C -7.910156 -7.585938 -7.125 -8.109375 -6 -8.296875 L -6 -7.15625 C -6.625 -7.007812 -7.082031 -6.710938 -7.375 -6.265625 C -7.664062 -5.828125 -7.8125 -5.273438 -7.8125 -4.609375 C -7.8125 -3.804688 -7.507812 -3.132812 -6.90625 -2.59375 C -6.3125 -2.050781 -5.421875 -1.78125 -4.234375 -1.78125 C -3.210938 -1.78125 -2.378906 -2.003906 -1.734375 -2.453125 C -1.097656 -2.898438 -0.78125 -3.628906 -0.78125 -4.640625 C -0.78125 -5.421875 -1.003906 -6.066406 -1.453125 -6.578125 C -1.898438 -7.085938 -2.628906 -7.347656 -3.640625 -7.359375 L -3.640625 -4.671875 L -4.609375 -4.671875 L -4.609375 -8.4375 L 0 -8.4375 L 0 -7.6875 L -1.109375 -7.40625 C -0.671875 -7.019531 -0.367188 -6.671875 -0.203125 -6.359375 C 0.0859375 -5.847656 0.234375 -5.195312 0.234375 -4.40625 C 0.234375 -3.394531 -0.0976562 -2.519531 -0.765625 -1.78125 C -1.585938 -0.976562 -2.722656 -0.578125 -4.171875 -0.578125 C -5.609375 -0.578125 -6.753906 -0.96875 -7.609375 -1.75 C -8.421875 -2.488281 -8.828125 -3.453125 -8.828125 -4.640625 Z M -8.84375 -4.4375 Z "/>
</symbol>
<symbol overflow="visible" id="glyph1-7">
<path style="stroke:none;" d="M -6.421875 -3.390625 C -6.421875 -3.835938 -6.316406 -4.269531 -6.109375 -4.6875 C -5.898438 -5.101562 -5.628906 -5.421875 -5.296875 -5.640625 C -4.972656 -5.847656 -4.601562 -5.988281 -4.1875 -6.0625 C -3.894531 -6.125 -3.429688 -6.15625 -2.796875 -6.15625 L -2.796875 -1.546875 C -2.160156 -1.566406 -1.648438 -1.71875 -1.265625 -2 C -0.878906 -2.28125 -0.6875 -2.71875 -0.6875 -3.3125 C -0.6875 -3.863281 -0.867188 -4.300781 -1.234375 -4.625 C -1.441406 -4.8125 -1.6875 -4.945312 -1.96875 -5.03125 L -1.96875 -6.0625 C -1.738281 -6.039062 -1.484375 -5.953125 -1.203125 -5.796875 C -0.921875 -5.640625 -0.6875 -5.46875 -0.5 -5.28125 C -0.1875 -4.957031 0.0195312 -4.554688 0.125 -4.078125 C 0.1875 -3.828125 0.21875 -3.539062 0.21875 -3.21875 C 0.21875 -2.4375 -0.0625 -1.773438 -0.625 -1.234375 C -1.195312 -0.691406 -1.992188 -0.421875 -3.015625 -0.421875 C -4.023438 -0.421875 -4.84375 -0.691406 -5.46875 -1.234375 C -6.101562 -1.785156 -6.421875 -2.503906 -6.421875 -3.390625 Z M -3.640625 -5.0625 C -4.097656 -5.019531 -4.460938 -4.921875 -4.734375 -4.765625 C -5.242188 -4.484375 -5.5 -4.003906 -5.5 -3.328125 C -5.5 -2.835938 -5.320312 -2.425781 -4.96875 -2.09375 C -4.625 -1.769531 -4.179688 -1.597656 -3.640625 -1.578125 Z M -6.421875 -3.28125 Z "/>
</symbol>
<symbol overflow="visible" id="glyph1-8">
<path style="stroke:none;" d="M -6.28125 -0.78125 L -6.28125 -1.78125 L -5.390625 -1.78125 C -5.753906 -2.070312 -6.015625 -2.382812 -6.171875 -2.71875 C -6.335938 -3.050781 -6.421875 -3.421875 -6.421875 -3.828125 C -6.421875 -4.710938 -6.109375 -5.3125 -5.484375 -5.625 C -5.140625 -5.800781 -4.65625 -5.890625 -4.03125 -5.890625 L 0 -5.890625 L 0 -4.8125 L -3.953125 -4.8125 C -4.335938 -4.8125 -4.644531 -4.753906 -4.875 -4.640625 C -5.269531 -4.453125 -5.46875 -4.113281 -5.46875 -3.625 C -5.46875 -3.375 -5.441406 -3.171875 -5.390625 -3.015625 C -5.304688 -2.722656 -5.132812 -2.46875 -4.875 -2.25 C -4.664062 -2.070312 -4.453125 -1.957031 -4.234375 -1.90625 C -4.015625 -1.851562 -3.695312 -1.828125 -3.28125 -1.828125 L 0 -1.828125 L 0 -0.78125 Z M -6.421875 -3.25 Z "/>
</symbol>
<symbol overflow="visible" id="glyph1-9">
<path style="stroke:none;" d="M -6.28125 -0.796875 L -6.28125 -1.8125 L -5.1875 -1.8125 C -5.40625 -1.882812 -5.664062 -2.082031 -5.96875 -2.40625 C -6.269531 -2.726562 -6.421875 -3.097656 -6.421875 -3.515625 C -6.421875 -3.535156 -6.414062 -3.566406 -6.40625 -3.609375 C -6.40625 -3.660156 -6.398438 -3.742188 -6.390625 -3.859375 L -5.28125 -3.859375 C -5.289062 -3.796875 -5.296875 -3.738281 -5.296875 -3.6875 C -5.296875 -3.632812 -5.296875 -3.578125 -5.296875 -3.515625 C -5.296875 -2.984375 -5.125 -2.570312 -4.78125 -2.28125 C -4.445312 -2 -4.054688 -1.859375 -3.609375 -1.859375 L 0 -1.859375 L 0 -0.796875 Z "/>
</symbol>
<symbol overflow="visible" id="glyph1-10">
<path style="stroke:none;" d="M -1.671875 -1.578125 C -1.367188 -1.578125 -1.128906 -1.6875 -0.953125 -1.90625 C -0.773438 -2.132812 -0.6875 -2.398438 -0.6875 -2.703125 C -0.6875 -3.078125 -0.769531 -3.4375 -0.9375 -3.78125 C -1.226562 -4.375 -1.695312 -4.671875 -2.34375 -4.671875 L -3.1875 -4.671875 C -3.113281 -4.535156 -3.046875 -4.363281 -2.984375 -4.15625 C -2.929688 -3.957031 -2.894531 -3.757812 -2.875 -3.5625 L -2.796875 -2.9375 C -2.742188 -2.550781 -2.660156 -2.257812 -2.546875 -2.0625 C -2.367188 -1.738281 -2.078125 -1.578125 -1.671875 -1.578125 Z M -3.796875 -4.140625 C -3.828125 -4.378906 -3.929688 -4.539062 -4.109375 -4.625 C -4.203125 -4.664062 -4.335938 -4.6875 -4.515625 -4.6875 C -4.867188 -4.6875 -5.125 -4.554688 -5.28125 -4.296875 C -5.445312 -4.046875 -5.53125 -3.6875 -5.53125 -3.21875 C -5.53125 -2.664062 -5.382812 -2.273438 -5.09375 -2.046875 C -4.925781 -1.910156 -4.679688 -1.820312 -4.359375 -1.78125 L -4.359375 -0.796875 C -5.128906 -0.816406 -5.664062 -1.066406 -5.96875 -1.546875 C -6.269531 -2.035156 -6.421875 -2.597656 -6.421875 -3.234375 C -6.421875 -3.972656 -6.28125 -4.570312 -6 -5.03125 C -5.71875 -5.488281 -5.28125 -5.71875 -4.6875 -5.71875 L -1.078125 -5.71875 C -0.972656 -5.71875 -0.882812 -5.738281 -0.8125 -5.78125 C -0.75 -5.832031 -0.71875 -5.929688 -0.71875 -6.078125 C -0.71875 -6.117188 -0.71875 -6.164062 -0.71875 -6.21875 C -0.726562 -6.28125 -0.738281 -6.347656 -0.75 -6.421875 L 0.03125 -6.421875 C 0.0703125 -6.253906 0.0976562 -6.125 0.109375 -6.03125 C 0.128906 -5.945312 0.140625 -5.832031 0.140625 -5.6875 C 0.140625 -5.320312 0.0078125 -5.0625 -0.25 -4.90625 C -0.382812 -4.8125 -0.578125 -4.75 -0.828125 -4.71875 C -0.546875 -4.5 -0.300781 -4.1875 -0.09375 -3.78125 C 0.113281 -3.382812 0.21875 -2.945312 0.21875 -2.46875 C 0.21875 -1.882812 0.0390625 -1.40625 -0.3125 -1.03125 C -0.664062 -0.664062 -1.109375 -0.484375 -1.640625 -0.484375 C -2.222656 -0.484375 -2.675781 -0.664062 -3 -1.03125 C -3.320312 -1.394531 -3.519531 -1.867188 -3.59375 -2.453125 Z M -6.421875 -3.265625 Z "/>
</symbol>
<symbol overflow="visible" id="glyph1-11">
<path style="stroke:none;" d="M -8.03125 -0.984375 L -8.03125 -2.046875 L -6.28125 -2.046875 L -6.28125 -3.046875 L -5.421875 -3.046875 L -5.421875 -2.046875 L -1.3125 -2.046875 C -1.09375 -2.046875 -0.945312 -2.125 -0.875 -2.28125 C -0.832031 -2.351562 -0.8125 -2.488281 -0.8125 -2.6875 C -0.8125 -2.738281 -0.8125 -2.789062 -0.8125 -2.84375 C -0.820312 -2.90625 -0.828125 -2.972656 -0.828125 -3.046875 L 0 -3.046875 C 0.03125 -2.929688 0.0507812 -2.804688 0.0625 -2.671875 C 0.0820312 -2.546875 0.09375 -2.40625 0.09375 -2.25 C 0.09375 -1.757812 -0.03125 -1.425781 -0.28125 -1.25 C -0.53125 -1.070312 -0.859375 -0.984375 -1.265625 -0.984375 L -5.421875 -0.984375 L -5.421875 -0.140625 L -6.28125 -0.140625 L -6.28125 -0.984375 Z "/>
</symbol>
<symbol overflow="visible" id="glyph1-12">
<path style="stroke:none;" d="M -0.6875 -3.265625 C -0.6875 -3.960938 -0.945312 -4.441406 -1.46875 -4.703125 C -2 -4.960938 -2.585938 -5.09375 -3.234375 -5.09375 C -3.828125 -5.09375 -4.304688 -5 -4.671875 -4.8125 C -5.242188 -4.507812 -5.53125 -4 -5.53125 -3.28125 C -5.53125 -2.632812 -5.285156 -2.164062 -4.796875 -1.875 C -4.304688 -1.582031 -3.710938 -1.4375 -3.015625 -1.4375 C -2.347656 -1.4375 -1.789062 -1.582031 -1.34375 -1.875 C -0.90625 -2.164062 -0.6875 -2.628906 -0.6875 -3.265625 Z M -6.453125 -3.3125 C -6.453125 -4.113281 -6.179688 -4.789062 -5.640625 -5.34375 C -5.109375 -5.90625 -4.316406 -6.1875 -3.265625 -6.1875 C -2.253906 -6.1875 -1.414062 -5.941406 -0.75 -5.453125 C -0.09375 -4.960938 0.234375 -4.203125 0.234375 -3.171875 C 0.234375 -2.304688 -0.0546875 -1.617188 -0.640625 -1.109375 C -1.234375 -0.597656 -2.019531 -0.34375 -3 -0.34375 C -4.050781 -0.34375 -4.890625 -0.609375 -5.515625 -1.140625 C -6.140625 -1.679688 -6.453125 -2.40625 -6.453125 -3.3125 Z M -6.421875 -3.265625 Z "/>
</symbol>
<symbol overflow="visible" id="glyph1-13">
<path style="stroke:none;" d=""/>
</symbol>
<symbol overflow="visible" id="glyph1-14">
<path style="stroke:none;" d="M -1.96875 -1.40625 C -1.613281 -1.4375 -1.34375 -1.523438 -1.15625 -1.671875 C -0.820312 -1.929688 -0.65625 -2.390625 -0.65625 -3.046875 C -0.65625 -3.441406 -0.738281 -3.785156 -0.90625 -4.078125 C -1.070312 -4.378906 -1.332031 -4.53125 -1.6875 -4.53125 C -1.957031 -4.53125 -2.164062 -4.410156 -2.3125 -4.171875 C -2.394531 -4.015625 -2.492188 -3.710938 -2.609375 -3.265625 L -2.8125 -2.421875 C -2.945312 -1.890625 -3.097656 -1.5 -3.265625 -1.25 C -3.546875 -0.789062 -3.941406 -0.5625 -4.453125 -0.5625 C -5.046875 -0.5625 -5.523438 -0.773438 -5.890625 -1.203125 C -6.253906 -1.628906 -6.4375 -2.207031 -6.4375 -2.9375 C -6.4375 -3.875 -6.160156 -4.550781 -5.609375 -4.96875 C -5.253906 -5.238281 -4.875 -5.367188 -4.46875 -5.359375 L -4.46875 -4.359375 C -4.707031 -4.335938 -4.925781 -4.253906 -5.125 -4.109375 C -5.394531 -3.867188 -5.53125 -3.445312 -5.53125 -2.84375 C -5.53125 -2.445312 -5.453125 -2.144531 -5.296875 -1.9375 C -5.148438 -1.738281 -4.953125 -1.640625 -4.703125 -1.640625 C -4.429688 -1.640625 -4.210938 -1.773438 -4.046875 -2.046875 C -3.953125 -2.203125 -3.867188 -2.429688 -3.796875 -2.734375 L -3.625 -3.421875 C -3.4375 -4.179688 -3.257812 -4.691406 -3.09375 -4.953125 C -2.820312 -5.359375 -2.394531 -5.5625 -1.8125 -5.5625 C -1.257812 -5.5625 -0.78125 -5.347656 -0.375 -4.921875 C 0.03125 -4.503906 0.234375 -3.863281 0.234375 -3 C 0.234375 -2.0625 0.0234375 -1.394531 -0.390625 -1 C -0.816406 -0.613281 -1.34375 -0.410156 -1.96875 -0.390625 Z M -6.421875 -2.953125 Z "/>
</symbol>
<symbol overflow="visible" id="glyph1-15">
<path style="stroke:none;" d="M -6.25 -0.78125 L -6.25 -1.84375 L 0 -1.84375 L 0 -0.78125 Z M -8.609375 -0.78125 L -8.609375 -1.84375 L -7.40625 -1.84375 L -7.40625 -0.78125 Z "/>
</symbol>
<symbol overflow="visible" id="glyph1-16">
<path style="stroke:none;" d="M -6.28125 -0.78125 L -6.28125 -1.8125 L -5.390625 -1.8125 C -5.691406 -2.0625 -5.914062 -2.289062 -6.0625 -2.5 C -6.300781 -2.84375 -6.421875 -3.238281 -6.421875 -3.6875 C -6.421875 -4.1875 -6.296875 -4.585938 -6.046875 -4.890625 C -5.910156 -5.054688 -5.703125 -5.210938 -5.421875 -5.359375 C -5.765625 -5.585938 -6.015625 -5.859375 -6.171875 -6.171875 C -6.335938 -6.492188 -6.421875 -6.851562 -6.421875 -7.25 C -6.421875 -8.09375 -6.113281 -8.664062 -5.5 -8.96875 C -5.175781 -9.132812 -4.734375 -9.21875 -4.171875 -9.21875 L 0 -9.21875 L 0 -8.125 L -4.359375 -8.125 C -4.773438 -8.125 -5.0625 -8.019531 -5.21875 -7.8125 C -5.375 -7.601562 -5.453125 -7.347656 -5.453125 -7.046875 C -5.453125 -6.628906 -5.3125 -6.269531 -5.03125 -5.96875 C -4.757812 -5.675781 -4.300781 -5.53125 -3.65625 -5.53125 L 0 -5.53125 L 0 -4.453125 L -4.09375 -4.453125 C -4.519531 -4.453125 -4.832031 -4.398438 -5.03125 -4.296875 C -5.320312 -4.140625 -5.46875 -3.84375 -5.46875 -3.40625 C -5.46875 -3.007812 -5.3125 -2.644531 -5 -2.3125 C -4.695312 -1.988281 -4.140625 -1.828125 -3.328125 -1.828125 L 0 -1.828125 L 0 -0.78125 Z "/>
</symbol>
<symbol overflow="visible" id="glyph1-17">
<path style="stroke:none;" d="M -6.28125 -1.828125 L -2.109375 -1.828125 C -1.785156 -1.828125 -1.523438 -1.878906 -1.328125 -1.984375 C -0.953125 -2.171875 -0.765625 -2.519531 -0.765625 -3.03125 C -0.765625 -3.757812 -1.09375 -4.257812 -1.75 -4.53125 C -2.101562 -4.675781 -2.582031 -4.75 -3.1875 -4.75 L -6.28125 -4.75 L -6.28125 -5.796875 L 0 -5.796875 L 0 -4.8125 L -0.921875 -4.8125 C -0.679688 -4.675781 -0.484375 -4.507812 -0.328125 -4.3125 C 0.00390625 -3.90625 0.171875 -3.414062 0.171875 -2.84375 C 0.171875 -1.945312 -0.128906 -1.335938 -0.734375 -1.015625 C -1.046875 -0.835938 -1.472656 -0.75 -2.015625 -0.75 L -6.28125 -0.75 Z M -6.421875 -3.28125 Z "/>
</symbol>
<symbol overflow="visible" id="glyph1-18">
<path style="stroke:none;" d="M -8.609375 -0.796875 L -8.609375 -1.859375 L 0 -1.859375 L 0 -0.796875 Z "/>
</symbol>
<symbol overflow="visible" id="glyph1-19">
<path style="stroke:none;" d="M -8.75 -3.546875 C -7.5625 -2.929688 -6.6875 -2.535156 -6.125 -2.359375 C -5.257812 -2.078125 -4.269531 -1.9375 -3.15625 -1.9375 C -2.019531 -1.9375 -0.984375 -2.097656 -0.046875 -2.421875 C 0.535156 -2.609375 1.367188 -2.988281 2.453125 -3.5625 L 2.453125 -2.859375 C 1.554688 -2.285156 0.984375 -1.929688 0.734375 -1.796875 C 0.492188 -1.660156 0.160156 -1.515625 -0.265625 -1.359375 C -0.835938 -1.140625 -1.453125 -0.984375 -2.109375 -0.890625 C -2.453125 -0.847656 -2.773438 -0.828125 -3.078125 -0.828125 C -4.234375 -0.828125 -5.265625 -1.007812 -6.171875 -1.375 C -6.742188 -1.601562 -7.601562 -2.082031 -8.75 -2.8125 Z "/>
</symbol>
<symbol overflow="visible" id="glyph1-20">
<path style="stroke:none;" d="M 2.453125 -0.421875 C 1.242188 -1.035156 0.359375 -1.4375 -0.203125 -1.625 C -1.035156 -1.894531 -2.019531 -2.03125 -3.15625 -2.03125 C -4.28125 -2.03125 -5.3125 -1.867188 -6.25 -1.546875 C -6.832031 -1.359375 -7.664062 -0.976562 -8.75 -0.40625 L -8.75 -1.109375 C -7.789062 -1.710938 -7.195312 -2.078125 -6.96875 -2.203125 C -6.75 -2.328125 -6.441406 -2.460938 -6.046875 -2.609375 C -5.554688 -2.796875 -5.070312 -2.929688 -4.59375 -3.015625 C -4.113281 -3.097656 -3.65625 -3.140625 -3.21875 -3.140625 C -2.0625 -3.140625 -1.03125 -2.953125 -0.125 -2.578125 C 0.457031 -2.347656 1.316406 -1.875 2.453125 -1.15625 Z "/>
</symbol>
</g>
</defs>
<g id="surface1">
<rect x="0" y="0" width="602" height="387" style="fill:rgb(100%,100%,100%);fill-opacity:1;stroke:none;"/>
<path style="fill:none;stroke-width:0.75;stroke-linecap:round;stroke-linejoin:round;stroke:rgb(0%,0%,0%);stroke-opacity:1;stroke-miterlimit:10;" d="M 94.03125 268.921875 L 572.769531 268.921875 "/>
<path style="fill:none;stroke-width:0.75;stroke-linecap:round;stroke-linejoin:round;stroke:rgb(0%,0%,0%);stroke-opacity:1;stroke-miterlimit:10;" d="M 94.03125 268.921875 L 94.03125 276.121094 "/>
<path style="fill:none;stroke-width:0.75;stroke-linecap:round;stroke-linejoin:round;stroke:rgb(0%,0%,0%);stroke-opacity:1;stroke-miterlimit:10;" d="M 189.777344 268.921875 L 189.777344 276.121094 "/>
<path style="fill:none;stroke-width:0.75;stroke-linecap:round;stroke-linejoin:round;stroke:rgb(0%,0%,0%);stroke-opacity:1;stroke-miterlimit:10;" d="M 285.527344 268.921875 L 285.527344 276.121094 "/>
<path style="fill:none;stroke-width:0.75;stroke-linecap:round;stroke-linejoin:round;stroke:rgb(0%,0%,0%);stroke-opacity:1;stroke-miterlimit:10;" d="M 381.273438 268.921875 L 381.273438 276.121094 "/>
<path style="fill:none;stroke-width:0.75;stroke-linecap:round;stroke-linejoin:round;stroke:rgb(0%,0%,0%);stroke-opacity:1;stroke-miterlimit:10;" d="M 477.023438 268.921875 L 477.023438 276.121094 "/>
<path style="fill:none;stroke-width:0.75;stroke-linecap:round;stroke-linejoin:round;stroke:rgb(0%,0%,0%);stroke-opacity:1;stroke-miterlimit:10;" d="M 572.769531 268.921875 L 572.769531 276.121094 "/>
<g style="fill:rgb(0%,0%,0%);fill-opacity:1;">
  <use xlink:href="#glyph0-1" x="90.695312" y="294.839844"/>
</g>
<g style="fill:rgb(0%,0%,0%);fill-opacity:1;">
  <use xlink:href="#glyph0-2" x="179.765625" y="294.839844"/>
  <use xlink:href="#glyph0-1" x="186.439453" y="294.839844"/>
  <use xlink:href="#glyph0-1" x="193.113281" y="294.839844"/>
</g>
<g style="fill:rgb(0%,0%,0%);fill-opacity:1;">
  <use xlink:href="#glyph0-3" x="275.515625" y="294.839844"/>
  <use xlink:href="#glyph0-1" x="282.189453" y="294.839844"/>
  <use xlink:href="#glyph0-1" x="288.863281" y="294.839844"/>
</g>
<g style="fill:rgb(0%,0%,0%);fill-opacity:1;">
  <use xlink:href="#glyph0-4" x="371.261719" y="294.839844"/>
  <use xlink:href="#glyph0-1" x="377.935547" y="294.839844"/>
  <use xlink:href="#glyph0-1" x="384.609375" y="294.839844"/>
</g>
<g style="fill:rgb(0%,0%,0%);fill-opacity:1;">
  <use xlink:href="#glyph0-5" x="467.011719" y="294.839844"/>
  <use xlink:href="#glyph0-1" x="473.685547" y="294.839844"/>
  <use xlink:href="#glyph0-1" x="480.359375" y="294.839844"/>
</g>
<g style="fill:rgb(0%,0%,0%);fill-opacity:1;">
  <use xlink:href="#glyph0-6" x="562.757812" y="294.839844"/>
  <use xlink:href="#glyph0-1" x="569.431641" y="294.839844"/>
  <use xlink:href="#glyph0-1" x="576.105469" y="294.839844"/>
</g>
<path style="fill:none;stroke-width:0.75;stroke-linecap:round;stroke-linejoin:round;stroke:rgb(0%,0%,0%);stroke-opacity:1;stroke-miterlimit:10;" d="M 74.878906 259.332031 L 74.878906 19.667969 "/>
<path style="fill:none;stroke-width:0.75;stroke-linecap:round;stroke-linejoin:round;stroke:rgb(0%,0%,0%);stroke-opacity:1;stroke-miterlimit:10;" d="M 74.878906 259.332031 L 67.679688 259.332031 "/>
<path style="fill:none;stroke-width:0.75;stroke-linecap:round;stroke-linejoin:round;stroke:rgb(0%,0%,0%);stroke-opacity:1;stroke-miterlimit:10;" d="M 74.878906 229.375 L 67.679688 229.375 "/>
<path style="fill:none;stroke-width:0.75;stroke-linecap:round;stroke-linejoin:round;stroke:rgb(0%,0%,0%);stroke-opacity:1;stroke-miterlimit:10;" d="M 74.878906 199.417969 L 67.679688 199.417969 "/>
<path style="fill:none;stroke-width:0.75;stroke-linecap:round;stroke-linejoin:round;stroke:rgb(0%,0%,0%);stroke-opacity:1;stroke-miterlimit:10;" d="M 74.878906 169.457031 L 67.679688 169.457031 "/>
<path style="fill:none;stroke-width:0.75;stroke-linecap:round;stroke-linejoin:round;stroke:rgb(0%,0%,0%);stroke-opacity:1;stroke-miterlimit:10;" d="M 74.878906 139.5 L 67.679688 139.5 "/>
<path style="fill:none;stroke-width:0.75;stroke-linecap:round;stroke-linejoin:round;stroke:rgb(0%,0%,0%);stroke-opacity:1;stroke-miterlimit:10;" d="M 74.878906 109.542969 L 67.679688 109.542969 "/>
<path style="fill:none;stroke-width:0.75;stroke-linecap:round;stroke-linejoin:round;stroke:rgb(0%,0%,0%);stroke-opacity:1;stroke-miterlimit:10;" d="M 74.878906 79.582031 L 67.679688 79.582031 "/>
<path style="fill:none;stroke-width:0.75;stroke-linecap:round;stroke-linejoin:round;stroke:rgb(0%,0%,0%);stroke-opacity:1;stroke-miterlimit:10;" d="M 74.878906 49.625 L 67.679688 49.625 "/>
<path style="fill:none;stroke-width:0.75;stroke-linecap:round;stroke-linejoin:round;stroke:rgb(0%,0%,0%);stroke-opacity:1;stroke-miterlimit:10;" d="M 74.878906 19.667969 L 67.679688 19.667969 "/>
<g style="fill:rgb(0%,0%,0%);fill-opacity:1;">
  <use xlink:href="#glyph1-1" x="57.601562" y="262.667969"/>
</g>
<g style="fill:rgb(0%,0%,0%);fill-opacity:1;">
  <use xlink:href="#glyph1-2" x="57.601562" y="242.722656"/>
  <use xlink:href="#glyph1-1" x="57.601562" y="236.048828"/>
  <use xlink:href="#glyph1-1" x="57.601562" y="229.375"/>
  <use xlink:href="#glyph1-1" x="57.601562" y="222.701172"/>
</g>
<g style="fill:rgb(0%,0%,0%);fill-opacity:1;">
  <use xlink:href="#glyph1-3" x="57.601562" y="182.804688"/>
  <use xlink:href="#glyph1-1" x="57.601562" y="176.130859"/>
  <use xlink:href="#glyph1-1" x="57.601563" y="169.457031"/>
  <use xlink:href="#glyph1-1" x="57.601563" y="162.783203"/>
</g>
<g style="fill:rgb(0%,0%,0%);fill-opacity:1;">
  <use xlink:href="#glyph1-4" x="57.601562" y="122.890625"/>
  <use xlink:href="#glyph1-1" x="57.601562" y="116.216797"/>
  <use xlink:href="#glyph1-1" x="57.601562" y="109.542969"/>
  <use xlink:href="#glyph1-1" x="57.601562" y="102.869141"/>
</g>
<g style="fill:rgb(0%,0%,0%);fill-opacity:1;">
  <use xlink:href="#glyph1-5" x="57.601562" y="62.972656"/>
  <use xlink:href="#glyph1-1" x="57.601563" y="56.298828"/>
  <use xlink:href="#glyph1-1" x="57.601563" y="49.625"/>
  <use xlink:href="#glyph1-1" x="57.601563" y="42.951172"/>
</g>
<path style="fill:none;stroke-width:0.75;stroke-linecap:round;stroke-linejoin:round;stroke:rgb(0%,0%,0%);stroke-opacity:1;stroke-miterlimit:10;" d="M 74.878906 268.921875 L 591.921875 268.921875 L 591.921875 10.078125 L 74.878906 10.078125 L 74.878906 268.921875 "/>
<g style="fill:rgb(0%,0%,0%);fill-opacity:1;">
  <use xlink:href="#glyph0-7" x="261.710938" y="323.640625"/>
  <use xlink:href="#glyph0-8" x="269.714844" y="323.640625"/>
  <use xlink:href="#glyph0-9" x="272.380859" y="323.640625"/>
  <use xlink:href="#glyph0-10" x="282.376953" y="323.640625"/>
  <use xlink:href="#glyph0-11" x="289.050781" y="323.640625"/>
  <use xlink:href="#glyph0-12" x="291.716797" y="323.640625"/>
  <use xlink:href="#glyph0-13" x="298.390625" y="323.640625"/>
  <use xlink:href="#glyph0-14" x="301.724609" y="323.640625"/>
  <use xlink:href="#glyph0-15" x="308.398438" y="323.640625"/>
  <use xlink:href="#glyph0-16" x="315.072266" y="323.640625"/>
  <use xlink:href="#glyph0-17" x="318.40625" y="323.640625"/>
  <use xlink:href="#glyph0-14" x="325.080078" y="323.640625"/>
  <use xlink:href="#glyph0-18" x="331.753906" y="323.640625"/>
  <use xlink:href="#glyph0-8" x="335.75" y="323.640625"/>
  <use xlink:href="#glyph0-19" x="338.416016" y="323.640625"/>
  <use xlink:href="#glyph0-15" x="345.089844" y="323.640625"/>
  <use xlink:href="#glyph0-16" x="351.763672" y="323.640625"/>
  <use xlink:href="#glyph0-13" x="355.097656" y="323.640625"/>
  <use xlink:href="#glyph0-8" x="358.431641" y="323.640625"/>
  <use xlink:href="#glyph0-9" x="361.097656" y="323.640625"/>
  <use xlink:href="#glyph0-14" x="371.09375" y="323.640625"/>
  <use xlink:href="#glyph0-16" x="377.767578" y="323.640625"/>
  <use xlink:href="#glyph0-20" x="381.101562" y="323.640625"/>
  <use xlink:href="#glyph0-9" x="385.097656" y="323.640625"/>
  <use xlink:href="#glyph0-21" x="395.09375" y="323.640625"/>
  <use xlink:href="#glyph0-22" x="401.09375" y="323.640625"/>
</g>
<g style="fill:rgb(0%,0%,0%);fill-opacity:1;">
  <use xlink:href="#glyph1-6" x="28.800781" y="220.195312"/>
  <use xlink:href="#glyph1-7" x="28.800781" y="210.861328"/>
  <use xlink:href="#glyph1-8" x="28.800781" y="204.1875"/>
  <use xlink:href="#glyph1-7" x="28.800781" y="197.513672"/>
  <use xlink:href="#glyph1-9" x="28.800781" y="190.839844"/>
  <use xlink:href="#glyph1-10" x="28.800781" y="186.84375"/>
  <use xlink:href="#glyph1-11" x="28.800781" y="180.169922"/>
  <use xlink:href="#glyph1-12" x="28.800781" y="176.835938"/>
  <use xlink:href="#glyph1-9" x="28.800781" y="170.162109"/>
  <use xlink:href="#glyph1-13" x="28.800781" y="166.166016"/>
  <use xlink:href="#glyph1-14" x="28.800781" y="162.832031"/>
  <use xlink:href="#glyph1-15" x="28.800781" y="156.832031"/>
  <use xlink:href="#glyph1-16" x="28.800781" y="154.166016"/>
  <use xlink:href="#glyph1-17" x="28.800781" y="144.169922"/>
  <use xlink:href="#glyph1-18" x="28.800781" y="137.496094"/>
  <use xlink:href="#glyph1-10" x="28.800781" y="134.830078"/>
  <use xlink:href="#glyph1-11" x="28.800781" y="128.15625"/>
  <use xlink:href="#glyph1-15" x="28.800781" y="124.822266"/>
  <use xlink:href="#glyph1-12" x="28.800781" y="122.15625"/>
  <use xlink:href="#glyph1-8" x="28.800781" y="115.482422"/>
  <use xlink:href="#glyph1-13" x="28.800781" y="108.808594"/>
  <use xlink:href="#glyph1-11" x="28.800781" y="105.474609"/>
  <use xlink:href="#glyph1-15" x="28.800781" y="102.140625"/>
  <use xlink:href="#glyph1-16" x="28.800781" y="99.474609"/>
  <use xlink:href="#glyph1-7" x="28.800781" y="89.478516"/>
  <use xlink:href="#glyph1-13" x="28.800781" y="82.804688"/>
  <use xlink:href="#glyph1-19" x="28.800781" y="79.470703"/>
  <use xlink:href="#glyph1-17" x="28.800781" y="75.474609"/>
  <use xlink:href="#glyph1-14" x="28.800781" y="68.800781"/>
  <use xlink:href="#glyph1-20" x="28.800781" y="62.800781"/>
</g>
<path style="fill:none;stroke-width:0.75;stroke-linecap:round;stroke-linejoin:round;stroke:rgb(62.745098%,12.54902%,94.117647%);stroke-opacity:1;stroke-miterlimit:10;" d="M 95.945312 57.460938 L 103.605469 129.683594 L 113.179688 137.128906 L 122.753906 145 L 132.328125 136.179688 L 141.902344 144.53125 L 151.480469 142.253906 L 161.054688 145.558594 L 170.628906 138.113281 L 180.203125 140.058594 L 189.777344 139.191406 L 199.351562 141.183594 L 208.925781 142.578125 L 218.503906 143.714844 L 228.078125 149.449219 L 237.652344 145.042969 L 247.226562 145.398438 L 256.800781 148.046875 L 266.375 142.199219 L 275.949219 142.898438 L 285.527344 144.742188 L 295.101562 149.570312 L 304.675781 143.492188 L 314.25 148.363281 L 323.824219 142.707031 L 333.398438 140.035156 L 342.976562 148.867188 L 352.550781 147.863281 L 362.125 139.15625 L 371.699219 146.390625 L 381.273438 147.609375 L 390.847656 143.542969 L 400.421875 148.492188 L 410 149.894531 L 419.574219 148.453125 L 429.148438 151.5 L 438.722656 138.234375 L 448.296875 149.894531 L 457.871094 134.9375 L 467.449219 141.988281 L 477.023438 144.59375 L 486.597656 152.234375 L 496.171875 150.023438 L 505.746094 149.035156 L 515.320312 147.988281 L 524.894531 146.425781 L 534.472656 150.09375 L 544.046875 141.921875 L 553.621094 151.140625 L 563.195312 147.058594 L 572.769531 142.289062 "/>
<g style="fill:rgb(62.745098%,12.54902%,94.117647%);fill-opacity:1;">
  <use xlink:href="#glyph0-23" x="92.441406" y="60.523438"/>
</g>
<g style="fill:rgb(62.745098%,12.54902%,94.117647%);fill-opacity:1;">
  <use xlink:href="#glyph0-23" x="100.101562" y="132.746094"/>
</g>
<g style="fill:rgb(62.745098%,12.54902%,94.117647%);fill-opacity:1;">
  <use xlink:href="#glyph0-23" x="109.675781" y="140.191406"/>
</g>
<g style="fill:rgb(62.745098%,12.54902%,94.117647%);fill-opacity:1;">
  <use xlink:href="#glyph0-23" x="119.25" y="148.0625"/>
</g>
<g style="fill:rgb(62.745098%,12.54902%,94.117647%);fill-opacity:1;">
  <use xlink:href="#glyph0-23" x="128.824219" y="139.242188"/>
</g>
<g style="fill:rgb(62.745098%,12.54902%,94.117647%);fill-opacity:1;">
  <use xlink:href="#glyph0-23" x="138.398438" y="147.59375"/>
</g>
<g style="fill:rgb(62.745098%,12.54902%,94.117647%);fill-opacity:1;">
  <use xlink:href="#glyph0-23" x="147.976562" y="145.316406"/>
</g>
<g style="fill:rgb(62.745098%,12.54902%,94.117647%);fill-opacity:1;">
  <use xlink:href="#glyph0-23" x="157.550781" y="148.621094"/>
</g>
<g style="fill:rgb(62.745098%,12.54902%,94.117647%);fill-opacity:1;">
  <use xlink:href="#glyph0-23" x="167.125" y="141.175781"/>
</g>
<g style="fill:rgb(62.745098%,12.54902%,94.117647%);fill-opacity:1;">
  <use xlink:href="#glyph0-23" x="176.699219" y="143.121094"/>
</g>
<g style="fill:rgb(62.745098%,12.54902%,94.117647%);fill-opacity:1;">
  <use xlink:href="#glyph0-23" x="186.273438" y="142.253906"/>
</g>
<g style="fill:rgb(62.745098%,12.54902%,94.117647%);fill-opacity:1;">
  <use xlink:href="#glyph0-23" x="195.847656" y="144.246094"/>
</g>
<g style="fill:rgb(62.745098%,12.54902%,94.117647%);fill-opacity:1;">
  <use xlink:href="#glyph0-23" x="205.421875" y="145.640625"/>
</g>
<g style="fill:rgb(62.745098%,12.54902%,94.117647%);fill-opacity:1;">
  <use xlink:href="#glyph0-23" x="215" y="146.777344"/>
</g>
<g style="fill:rgb(62.745098%,12.54902%,94.117647%);fill-opacity:1;">
  <use xlink:href="#glyph0-23" x="224.574219" y="152.511719"/>
</g>
<g style="fill:rgb(62.745098%,12.54902%,94.117647%);fill-opacity:1;">
  <use xlink:href="#glyph0-23" x="234.148438" y="148.105469"/>
</g>
<g style="fill:rgb(62.745098%,12.54902%,94.117647%);fill-opacity:1;">
  <use xlink:href="#glyph0-23" x="243.722656" y="148.460938"/>
</g>
<g style="fill:rgb(62.745098%,12.54902%,94.117647%);fill-opacity:1;">
  <use xlink:href="#glyph0-23" x="253.296875" y="151.109375"/>
</g>
<g style="fill:rgb(62.745098%,12.54902%,94.117647%);fill-opacity:1;">
  <use xlink:href="#glyph0-23" x="262.871094" y="145.261719"/>
</g>
<g style="fill:rgb(62.745098%,12.54902%,94.117647%);fill-opacity:1;">
  <use xlink:href="#glyph0-23" x="272.445312" y="145.960938"/>
</g>
<g style="fill:rgb(62.745098%,12.54902%,94.117647%);fill-opacity:1;">
  <use xlink:href="#glyph0-23" x="282.023438" y="147.804688"/>
</g>
<g style="fill:rgb(62.745098%,12.54902%,94.117647%);fill-opacity:1;">
  <use xlink:href="#glyph0-23" x="291.597656" y="152.632812"/>
</g>
<g style="fill:rgb(62.745098%,12.54902%,94.117647%);fill-opacity:1;">
  <use xlink:href="#glyph0-23" x="301.171875" y="146.554688"/>
</g>
<g style="fill:rgb(62.745098%,12.54902%,94.117647%);fill-opacity:1;">
  <use xlink:href="#glyph0-23" x="310.746094" y="151.425781"/>
</g>
<g style="fill:rgb(62.745098%,12.54902%,94.117647%);fill-opacity:1;">
  <use xlink:href="#glyph0-23" x="320.320312" y="145.769531"/>
</g>
<g style="fill:rgb(62.745098%,12.54902%,94.117647%);fill-opacity:1;">
  <use xlink:href="#glyph0-23" x="329.894531" y="143.097656"/>
</g>
<g style="fill:rgb(62.745098%,12.54902%,94.117647%);fill-opacity:1;">
  <use xlink:href="#glyph0-23" x="339.472656" y="151.929688"/>
</g>
<g style="fill:rgb(62.745098%,12.54902%,94.117647%);fill-opacity:1;">
  <use xlink:href="#glyph0-23" x="349.046875" y="150.925781"/>
</g>
<g style="fill:rgb(62.745098%,12.54902%,94.117647%);fill-opacity:1;">
  <use xlink:href="#glyph0-23" x="358.621094" y="142.21875"/>
</g>
<g style="fill:rgb(62.745098%,12.54902%,94.117647%);fill-opacity:1;">
  <use xlink:href="#glyph0-23" x="368.195312" y="149.453125"/>
</g>
<g style="fill:rgb(62.745098%,12.54902%,94.117647%);fill-opacity:1;">
  <use xlink:href="#glyph0-23" x="377.769531" y="150.671875"/>
</g>
<g style="fill:rgb(62.745098%,12.54902%,94.117647%);fill-opacity:1;">
  <use xlink:href="#glyph0-23" x="387.34375" y="146.605469"/>
</g>
<g style="fill:rgb(62.745098%,12.54902%,94.117647%);fill-opacity:1;">
  <use xlink:href="#glyph0-23" x="396.917969" y="151.554688"/>
</g>
<g style="fill:rgb(62.745098%,12.54902%,94.117647%);fill-opacity:1;">
  <use xlink:href="#glyph0-23" x="406.496094" y="152.957031"/>
</g>
<g style="fill:rgb(62.745098%,12.54902%,94.117647%);fill-opacity:1;">
  <use xlink:href="#glyph0-23" x="416.070312" y="151.515625"/>
</g>
<g style="fill:rgb(62.745098%,12.54902%,94.117647%);fill-opacity:1;">
  <use xlink:href="#glyph0-23" x="425.644531" y="154.5625"/>
</g>
<g style="fill:rgb(62.745098%,12.54902%,94.117647%);fill-opacity:1;">
  <use xlink:href="#glyph0-23" x="435.21875" y="141.296875"/>
</g>
<g style="fill:rgb(62.745098%,12.54902%,94.117647%);fill-opacity:1;">
  <use xlink:href="#glyph0-23" x="444.792969" y="152.957031"/>
</g>
<g style="fill:rgb(62.745098%,12.54902%,94.117647%);fill-opacity:1;">
  <use xlink:href="#glyph0-23" x="454.367188" y="138"/>
</g>
<g style="fill:rgb(62.745098%,12.54902%,94.117647%);fill-opacity:1;">
  <use xlink:href="#glyph0-23" x="463.945312" y="145.050781"/>
</g>
<g style="fill:rgb(62.745098%,12.54902%,94.117647%);fill-opacity:1;">
  <use xlink:href="#glyph0-23" x="473.519531" y="147.65625"/>
</g>
<g style="fill:rgb(62.745098%,12.54902%,94.117647%);fill-opacity:1;">
  <use xlink:href="#glyph0-23" x="483.09375" y="155.296875"/>
</g>
<g style="fill:rgb(62.745098%,12.54902%,94.117647%);fill-opacity:1;">
  <use xlink:href="#glyph0-23" x="492.667969" y="153.085938"/>
</g>
<g style="fill:rgb(62.745098%,12.54902%,94.117647%);fill-opacity:1;">
  <use xlink:href="#glyph0-23" x="502.242188" y="152.097656"/>
</g>
<g style="fill:rgb(62.745098%,12.54902%,94.117647%);fill-opacity:1;">
  <use xlink:href="#glyph0-23" x="511.816406" y="151.050781"/>
</g>
<g style="fill:rgb(62.745098%,12.54902%,94.117647%);fill-opacity:1;">
  <use xlink:href="#glyph0-23" x="521.390625" y="149.488281"/>
</g>
<g style="fill:rgb(62.745098%,12.54902%,94.117647%);fill-opacity:1;">
  <use xlink:href="#glyph0-23" x="530.96875" y="153.15625"/>
</g>
<g style="fill:rgb(62.745098%,12.54902%,94.117647%);fill-opacity:1;">
  <use xlink:href="#glyph0-23" x="540.542969" y="144.984375"/>
</g>
<g style="fill:rgb(62.745098%,12.54902%,94.117647%);fill-opacity:1;">
  <use xlink:href="#glyph0-23" x="550.117188" y="154.203125"/>
</g>
<g style="fill:rgb(62.745098%,12.54902%,94.117647%);fill-opacity:1;">
  <use xlink:href="#glyph0-23" x="559.691406" y="150.121094"/>
</g>
<g style="fill:rgb(62.745098%,12.54902%,94.117647%);fill-opacity:1;">
  <use xlink:href="#glyph0-23" x="569.265625" y="145.351562"/>
</g>
<path style="fill:none;stroke-width:0.75;stroke-linecap:round;stroke-linejoin:round;stroke:rgb(100%,0%,0%);stroke-opacity:1;stroke-miterlimit:10;" d="M 95.945312 54.890625 L 103.605469 124.128906 L 113.179688 130.191406 L 122.753906 138.324219 L 132.328125 135.195312 L 141.902344 148.035156 L 151.480469 144.765625 L 161.054688 142.535156 L 170.628906 144.828125 L 180.203125 138.28125 L 189.777344 144.652344 L 199.351562 143.699219 L 208.925781 147.210938 L 218.503906 144.820312 L 228.078125 147.488281 L 237.652344 147.898438 L 247.226562 146.714844 L 256.800781 136.667969 L 266.375 147.992188 L 275.949219 144.539062 L 285.527344 151.214844 L 295.101562 142.617188 L 304.675781 140.722656 L 314.25 146.785156 L 323.824219 146.496094 L 333.398438 148.136719 L 342.976562 149.183594 L 352.550781 140.289062 L 362.125 145.90625 L 371.699219 142.214844 L 381.273438 146.078125 L 390.847656 148.417969 L 400.421875 143.71875 L 410 140.042969 L 419.574219 142.90625 L 429.148438 147.507812 L 438.722656 143.75 L 448.296875 146.171875 L 457.871094 146.800781 L 467.449219 149.554688 L 477.023438 144.710938 L 486.597656 145.570312 L 496.171875 146.050781 L 505.746094 141.953125 L 515.320312 138.28125 L 524.894531 147.914062 L 534.472656 148.1875 L 544.046875 139.550781 L 553.621094 146.648438 L 563.195312 143.210938 L 572.769531 133.820312 "/>
<g style="fill:rgb(100%,0%,0%);fill-opacity:1;">
  <use xlink:href="#glyph0-23" x="92.441406" y="57.953125"/>
</g>
<g style="fill:rgb(100%,0%,0%);fill-opacity:1;">
  <use xlink:href="#glyph0-23" x="100.101562" y="127.191406"/>
</g>
<g style="fill:rgb(100%,0%,0%);fill-opacity:1;">
  <use xlink:href="#glyph0-23" x="109.675781" y="133.253906"/>
</g>
<g style="fill:rgb(100%,0%,0%);fill-opacity:1;">
  <use xlink:href="#glyph0-23" x="119.25" y="141.386719"/>
</g>
<g style="fill:rgb(100%,0%,0%);fill-opacity:1;">
  <use xlink:href="#glyph0-23" x="128.824219" y="138.257812"/>
</g>
<g style="fill:rgb(100%,0%,0%);fill-opacity:1;">
  <use xlink:href="#glyph0-23" x="138.398438" y="151.097656"/>
</g>
<g style="fill:rgb(100%,0%,0%);fill-opacity:1;">
  <use xlink:href="#glyph0-23" x="147.976562" y="147.828125"/>
</g>
<g style="fill:rgb(100%,0%,0%);fill-opacity:1;">
  <use xlink:href="#glyph0-23" x="157.550781" y="145.597656"/>
</g>
<g style="fill:rgb(100%,0%,0%);fill-opacity:1;">
  <use xlink:href="#glyph0-23" x="167.125" y="147.890625"/>
</g>
<g style="fill:rgb(100%,0%,0%);fill-opacity:1;">
  <use xlink:href="#glyph0-23" x="176.699219" y="141.34375"/>
</g>
<g style="fill:rgb(100%,0%,0%);fill-opacity:1;">
  <use xlink:href="#glyph0-23" x="186.273438" y="147.714844"/>
</g>
<g style="fill:rgb(100%,0%,0%);fill-opacity:1;">
  <use xlink:href="#glyph0-23" x="195.847656" y="146.761719"/>
</g>
<g style="fill:rgb(100%,0%,0%);fill-opacity:1;">
  <use xlink:href="#glyph0-23" x="205.421875" y="150.273438"/>
</g>
<g style="fill:rgb(100%,0%,0%);fill-opacity:1;">
  <use xlink:href="#glyph0-23" x="215" y="147.882812"/>
</g>
<g style="fill:rgb(100%,0%,0%);fill-opacity:1;">
  <use xlink:href="#glyph0-23" x="224.574219" y="150.550781"/>
</g>
<g style="fill:rgb(100%,0%,0%);fill-opacity:1;">
  <use xlink:href="#glyph0-23" x="234.148438" y="150.960938"/>
</g>
<g style="fill:rgb(100%,0%,0%);fill-opacity:1;">
  <use xlink:href="#glyph0-23" x="243.722656" y="149.777344"/>
</g>
<g style="fill:rgb(100%,0%,0%);fill-opacity:1;">
  <use xlink:href="#glyph0-23" x="253.296875" y="139.730469"/>
</g>
<g style="fill:rgb(100%,0%,0%);fill-opacity:1;">
  <use xlink:href="#glyph0-23" x="262.871094" y="151.054688"/>
</g>
<g style="fill:rgb(100%,0%,0%);fill-opacity:1;">
  <use xlink:href="#glyph0-23" x="272.445312" y="147.601562"/>
</g>
<g style="fill:rgb(100%,0%,0%);fill-opacity:1;">
  <use xlink:href="#glyph0-23" x="282.023438" y="154.277344"/>
</g>
<g style="fill:rgb(100%,0%,0%);fill-opacity:1;">
  <use xlink:href="#glyph0-23" x="291.597656" y="145.679688"/>
</g>
<g style="fill:rgb(100%,0%,0%);fill-opacity:1;">
  <use xlink:href="#glyph0-23" x="301.171875" y="143.785156"/>
</g>
<g style="fill:rgb(100%,0%,0%);fill-opacity:1;">
  <use xlink:href="#glyph0-23" x="310.746094" y="149.847656"/>
</g>
<g style="fill:rgb(100%,0%,0%);fill-opacity:1;">
  <use xlink:href="#glyph0-23" x="320.320312" y="149.558594"/>
</g>
<g style="fill:rgb(100%,0%,0%);fill-opacity:1;">
  <use xlink:href="#glyph0-23" x="329.894531" y="151.199219"/>
</g>
<g style="fill:rgb(100%,0%,0%);fill-opacity:1;">
  <use xlink:href="#glyph0-23" x="339.472656" y="152.246094"/>
</g>
<g style="fill:rgb(100%,0%,0%);fill-opacity:1;">
  <use xlink:href="#glyph0-23" x="349.046875" y="143.351562"/>
</g>
<g style="fill:rgb(100%,0%,0%);fill-opacity:1;">
  <use xlink:href="#glyph0-23" x="358.621094" y="148.96875"/>
</g>
<g style="fill:rgb(100%,0%,0%);fill-opacity:1;">
  <use xlink:href="#glyph0-23" x="368.195312" y="145.277344"/>
</g>
<g style="fill:rgb(100%,0%,0%);fill-opacity:1;">
  <use xlink:href="#glyph0-23" x="377.769531" y="149.140625"/>
</g>
<g style="fill:rgb(100%,0%,0%);fill-opacity:1;">
  <use xlink:href="#glyph0-23" x="387.34375" y="151.480469"/>
</g>
<g style="fill:rgb(100%,0%,0%);fill-opacity:1;">
  <use xlink:href="#glyph0-23" x="396.917969" y="146.78125"/>
</g>
<g style="fill:rgb(100%,0%,0%);fill-opacity:1;">
  <use xlink:href="#glyph0-23" x="406.496094" y="143.105469"/>
</g>
<g style="fill:rgb(100%,0%,0%);fill-opacity:1;">
  <use xlink:href="#glyph0-23" x="416.070312" y="145.96875"/>
</g>
<g style="fill:rgb(100%,0%,0%);fill-opacity:1;">
  <use xlink:href="#glyph0-23" x="425.644531" y="150.570312"/>
</g>
<g style="fill:rgb(100%,0%,0%);fill-opacity:1;">
  <use xlink:href="#glyph0-23" x="435.21875" y="146.8125"/>
</g>
<g style="fill:rgb(100%,0%,0%);fill-opacity:1;">
  <use xlink:href="#glyph0-23" x="444.792969" y="149.234375"/>
</g>
<g style="fill:rgb(100%,0%,0%);fill-opacity:1;">
  <use xlink:href="#glyph0-23" x="454.367188" y="149.863281"/>
</g>
<g style="fill:rgb(100%,0%,0%);fill-opacity:1;">
  <use xlink:href="#glyph0-23" x="463.945312" y="152.617188"/>
</g>
<g style="fill:rgb(100%,0%,0%);fill-opacity:1;">
  <use xlink:href="#glyph0-23" x="473.519531" y="147.773438"/>
</g>
<g style="fill:rgb(100%,0%,0%);fill-opacity:1;">
  <use xlink:href="#glyph0-23" x="483.09375" y="148.632812"/>
</g>
<g style="fill:rgb(100%,0%,0%);fill-opacity:1;">
  <use xlink:href="#glyph0-23" x="492.667969" y="149.113281"/>
</g>
<g style="fill:rgb(100%,0%,0%);fill-opacity:1;">
  <use xlink:href="#glyph0-23" x="502.242188" y="145.015625"/>
</g>
<g style="fill:rgb(100%,0%,0%);fill-opacity:1;">
  <use xlink:href="#glyph0-23" x="511.816406" y="141.34375"/>
</g>
<g style="fill:rgb(100%,0%,0%);fill-opacity:1;">
  <use xlink:href="#glyph0-23" x="521.390625" y="150.976562"/>
</g>
<g style="fill:rgb(100%,0%,0%);fill-opacity:1;">
  <use xlink:href="#glyph0-23" x="530.96875" y="151.25"/>
</g>
<g style="fill:rgb(100%,0%,0%);fill-opacity:1;">
  <use xlink:href="#glyph0-23" x="540.542969" y="142.613281"/>
</g>
<g style="fill:rgb(100%,0%,0%);fill-opacity:1;">
  <use xlink:href="#glyph0-23" x="550.117188" y="149.710938"/>
</g>
<g style="fill:rgb(100%,0%,0%);fill-opacity:1;">
  <use xlink:href="#glyph0-23" x="559.691406" y="146.273438"/>
</g>
<g style="fill:rgb(100%,0%,0%);fill-opacity:1;">
  <use xlink:href="#glyph0-23" x="569.265625" y="136.882812"/>
</g>
<path style="fill:none;stroke-width:0.75;stroke-linecap:round;stroke-linejoin:round;stroke:rgb(0%,100%,0%);stroke-opacity:1;stroke-miterlimit:10;" d="M 95.945312 74.726562 L 103.605469 70.199219 L 113.179688 77.890625 L 122.753906 84.277344 L 132.328125 84.601562 L 141.902344 76.679688 L 151.480469 81.070312 L 161.054688 81.207031 L 170.628906 82.652344 L 180.203125 82.960938 L 189.777344 75.121094 L 199.351562 81.328125 L 208.925781 74.203125 L 218.503906 78.300781 L 228.078125 80.882812 L 237.652344 79.160156 L 247.226562 76.949219 L 256.800781 75.3125 L 266.375 80.949219 L 275.949219 78.285156 L 285.527344 74.210938 L 295.101562 77.710938 L 304.675781 77.382812 L 314.25 75.25 L 323.824219 76.714844 L 333.398438 75.914062 L 342.976562 75.996094 L 352.550781 81.316406 L 362.125 77.703125 L 371.699219 80.484375 L 381.273438 77.363281 L 390.847656 70.878906 L 400.421875 73.289062 L 410 83.335938 L 419.574219 79.300781 L 429.148438 73.4375 L 438.722656 85.402344 L 448.296875 74.253906 L 457.871094 76.3125 L 467.449219 82.566406 L 477.023438 80.449219 L 486.597656 80.167969 L 496.171875 80.460938 L 505.746094 87.234375 L 515.320312 78.277344 L 524.894531 81.234375 L 534.472656 77.9375 L 544.046875 71.007812 L 553.621094 75.414062 L 563.195312 83.511719 L 572.769531 85.65625 "/>
<g style="fill:rgb(0%,100%,0%);fill-opacity:1;">
  <use xlink:href="#glyph0-23" x="92.441406" y="77.789062"/>
</g>
<g style="fill:rgb(0%,100%,0%);fill-opacity:1;">
  <use xlink:href="#glyph0-23" x="100.101562" y="73.261719"/>
</g>
<g style="fill:rgb(0%,100%,0%);fill-opacity:1;">
  <use xlink:href="#glyph0-23" x="109.675781" y="80.953125"/>
</g>
<g style="fill:rgb(0%,100%,0%);fill-opacity:1;">
  <use xlink:href="#glyph0-23" x="119.25" y="87.339844"/>
</g>
<g style="fill:rgb(0%,100%,0%);fill-opacity:1;">
  <use xlink:href="#glyph0-23" x="128.824219" y="87.664062"/>
</g>
<g style="fill:rgb(0%,100%,0%);fill-opacity:1;">
  <use xlink:href="#glyph0-23" x="138.398438" y="79.742188"/>
</g>
<g style="fill:rgb(0%,100%,0%);fill-opacity:1;">
  <use xlink:href="#glyph0-23" x="147.976562" y="84.132812"/>
</g>
<g style="fill:rgb(0%,100%,0%);fill-opacity:1;">
  <use xlink:href="#glyph0-23" x="157.550781" y="84.269531"/>
</g>
<g style="fill:rgb(0%,100%,0%);fill-opacity:1;">
  <use xlink:href="#glyph0-23" x="167.125" y="85.714844"/>
</g>
<g style="fill:rgb(0%,100%,0%);fill-opacity:1;">
  <use xlink:href="#glyph0-23" x="176.699219" y="86.023438"/>
</g>
<g style="fill:rgb(0%,100%,0%);fill-opacity:1;">
  <use xlink:href="#glyph0-23" x="186.273438" y="78.183594"/>
</g>
<g style="fill:rgb(0%,100%,0%);fill-opacity:1;">
  <use xlink:href="#glyph0-23" x="195.847656" y="84.390625"/>
</g>
<g style="fill:rgb(0%,100%,0%);fill-opacity:1;">
  <use xlink:href="#glyph0-23" x="205.421875" y="77.265625"/>
</g>
<g style="fill:rgb(0%,100%,0%);fill-opacity:1;">
  <use xlink:href="#glyph0-23" x="215" y="81.363281"/>
</g>
<g style="fill:rgb(0%,100%,0%);fill-opacity:1;">
  <use xlink:href="#glyph0-23" x="224.574219" y="83.945312"/>
</g>
<g style="fill:rgb(0%,100%,0%);fill-opacity:1;">
  <use xlink:href="#glyph0-23" x="234.148438" y="82.222656"/>
</g>
<g style="fill:rgb(0%,100%,0%);fill-opacity:1;">
  <use xlink:href="#glyph0-23" x="243.722656" y="80.011719"/>
</g>
<g style="fill:rgb(0%,100%,0%);fill-opacity:1;">
  <use xlink:href="#glyph0-23" x="253.296875" y="78.375"/>
</g>
<g style="fill:rgb(0%,100%,0%);fill-opacity:1;">
  <use xlink:href="#glyph0-23" x="262.871094" y="84.011719"/>
</g>
<g style="fill:rgb(0%,100%,0%);fill-opacity:1;">
  <use xlink:href="#glyph0-23" x="272.445312" y="81.347656"/>
</g>
<g style="fill:rgb(0%,100%,0%);fill-opacity:1;">
  <use xlink:href="#glyph0-23" x="282.023438" y="77.273438"/>
</g>
<g style="fill:rgb(0%,100%,0%);fill-opacity:1;">
  <use xlink:href="#glyph0-23" x="291.597656" y="80.773438"/>
</g>
<g style="fill:rgb(0%,100%,0%);fill-opacity:1;">
  <use xlink:href="#glyph0-23" x="301.171875" y="80.445312"/>
</g>
<g style="fill:rgb(0%,100%,0%);fill-opacity:1;">
  <use xlink:href="#glyph0-23" x="310.746094" y="78.3125"/>
</g>
<g style="fill:rgb(0%,100%,0%);fill-opacity:1;">
  <use xlink:href="#glyph0-23" x="320.320312" y="79.777344"/>
</g>
<g style="fill:rgb(0%,100%,0%);fill-opacity:1;">
  <use xlink:href="#glyph0-23" x="329.894531" y="78.976562"/>
</g>
<g style="fill:rgb(0%,100%,0%);fill-opacity:1;">
  <use xlink:href="#glyph0-23" x="339.472656" y="79.058594"/>
</g>
<g style="fill:rgb(0%,100%,0%);fill-opacity:1;">
  <use xlink:href="#glyph0-23" x="349.046875" y="84.378906"/>
</g>
<g style="fill:rgb(0%,100%,0%);fill-opacity:1;">
  <use xlink:href="#glyph0-23" x="358.621094" y="80.765625"/>
</g>
<g style="fill:rgb(0%,100%,0%);fill-opacity:1;">
  <use xlink:href="#glyph0-23" x="368.195312" y="83.546875"/>
</g>
<g style="fill:rgb(0%,100%,0%);fill-opacity:1;">
  <use xlink:href="#glyph0-23" x="377.769531" y="80.425781"/>
</g>
<g style="fill:rgb(0%,100%,0%);fill-opacity:1;">
  <use xlink:href="#glyph0-23" x="387.34375" y="73.941406"/>
</g>
<g style="fill:rgb(0%,100%,0%);fill-opacity:1;">
  <use xlink:href="#glyph0-23" x="396.917969" y="76.351562"/>
</g>
<g style="fill:rgb(0%,100%,0%);fill-opacity:1;">
  <use xlink:href="#glyph0-23" x="406.496094" y="86.398438"/>
</g>
<g style="fill:rgb(0%,100%,0%);fill-opacity:1;">
  <use xlink:href="#glyph0-23" x="416.070312" y="82.363281"/>
</g>
<g style="fill:rgb(0%,100%,0%);fill-opacity:1;">
  <use xlink:href="#glyph0-23" x="425.644531" y="76.5"/>
</g>
<g style="fill:rgb(0%,100%,0%);fill-opacity:1;">
  <use xlink:href="#glyph0-23" x="435.21875" y="88.464844"/>
</g>
<g style="fill:rgb(0%,100%,0%);fill-opacity:1;">
  <use xlink:href="#glyph0-23" x="444.792969" y="77.316406"/>
</g>
<g style="fill:rgb(0%,100%,0%);fill-opacity:1;">
  <use xlink:href="#glyph0-23" x="454.367188" y="79.375"/>
</g>
<g style="fill:rgb(0%,100%,0%);fill-opacity:1;">
  <use xlink:href="#glyph0-23" x="463.945312" y="85.628906"/>
</g>
<g style="fill:rgb(0%,100%,0%);fill-opacity:1;">
  <use xlink:href="#glyph0-23" x="473.519531" y="83.511719"/>
</g>
<g style="fill:rgb(0%,100%,0%);fill-opacity:1;">
  <use xlink:href="#glyph0-23" x="483.09375" y="83.230469"/>
</g>
<g style="fill:rgb(0%,100%,0%);fill-opacity:1;">
  <use xlink:href="#glyph0-23" x="492.667969" y="83.523438"/>
</g>
<g style="fill:rgb(0%,100%,0%);fill-opacity:1;">
  <use xlink:href="#glyph0-23" x="502.242188" y="90.296875"/>
</g>
<g style="fill:rgb(0%,100%,0%);fill-opacity:1;">
  <use xlink:href="#glyph0-23" x="511.816406" y="81.339844"/>
</g>
<g style="fill:rgb(0%,100%,0%);fill-opacity:1;">
  <use xlink:href="#glyph0-23" x="521.390625" y="84.296875"/>
</g>
<g style="fill:rgb(0%,100%,0%);fill-opacity:1;">
  <use xlink:href="#glyph0-23" x="530.96875" y="81"/>
</g>
<g style="fill:rgb(0%,100%,0%);fill-opacity:1;">
  <use xlink:href="#glyph0-23" x="540.542969" y="74.070312"/>
</g>
<g style="fill:rgb(0%,100%,0%);fill-opacity:1;">
  <use xlink:href="#glyph0-23" x="550.117188" y="78.476562"/>
</g>
<g style="fill:rgb(0%,100%,0%);fill-opacity:1;">
  <use xlink:href="#glyph0-23" x="559.691406" y="86.574219"/>
</g>
<g style="fill:rgb(0%,100%,0%);fill-opacity:1;">
  <use xlink:href="#glyph0-23" x="569.265625" y="88.71875"/>
</g>
<path style="fill:none;stroke-width:0.75;stroke-linecap:round;stroke-linejoin:round;stroke:rgb(0%,39.215686%,0%);stroke-opacity:1;stroke-miterlimit:10;" d="M 95.945312 84.351562 L 103.605469 111.15625 L 113.179688 107.804688 L 122.753906 113.398438 L 132.328125 121.875 L 141.902344 116.769531 L 151.480469 116.308594 L 161.054688 111.378906 L 170.628906 118.417969 L 180.203125 115.867188 L 189.777344 116.039062 L 199.351562 113.730469 L 208.925781 106.394531 L 218.503906 113.351562 L 228.078125 111.679688 L 237.652344 111.308594 L 247.226562 113.359375 L 256.800781 107.550781 L 266.375 113.128906 L 275.949219 116.738281 L 285.527344 120.988281 L 295.101562 123.765625 L 304.675781 112.652344 L 314.25 119.730469 L 323.824219 110.984375 L 333.398438 122.417969 L 342.976562 109.039062 L 352.550781 115.285156 L 362.125 113.667969 L 371.699219 117.222656 L 381.273438 109.496094 L 390.847656 113.285156 L 400.421875 114.050781 L 410 107.632812 L 419.574219 112.710938 L 429.148438 110.578125 L 438.722656 120.234375 L 448.296875 122.160156 L 457.871094 121.585938 L 467.449219 122.464844 L 477.023438 121.515625 L 486.597656 120.972656 L 496.171875 121.070312 L 505.746094 127.925781 L 515.320312 120.523438 L 524.894531 119.824219 L 534.472656 120.957031 L 544.046875 120.085938 L 553.621094 118.898438 L 563.195312 120.980469 L 572.769531 119.9375 "/>
<g style="fill:rgb(0%,39.215686%,0%);fill-opacity:1;">
  <use xlink:href="#glyph0-23" x="92.441406" y="87.414062"/>
</g>
<g style="fill:rgb(0%,39.215686%,0%);fill-opacity:1;">
  <use xlink:href="#glyph0-23" x="100.101562" y="114.21875"/>
</g>
<g style="fill:rgb(0%,39.215686%,0%);fill-opacity:1;">
  <use xlink:href="#glyph0-23" x="109.675781" y="110.867188"/>
</g>
<g style="fill:rgb(0%,39.215686%,0%);fill-opacity:1;">
  <use xlink:href="#glyph0-23" x="119.25" y="116.460938"/>
</g>
<g style="fill:rgb(0%,39.215686%,0%);fill-opacity:1;">
  <use xlink:href="#glyph0-23" x="128.824219" y="124.9375"/>
</g>
<g style="fill:rgb(0%,39.215686%,0%);fill-opacity:1;">
  <use xlink:href="#glyph0-23" x="138.398438" y="119.832031"/>
</g>
<g style="fill:rgb(0%,39.215686%,0%);fill-opacity:1;">
  <use xlink:href="#glyph0-23" x="147.976562" y="119.371094"/>
</g>
<g style="fill:rgb(0%,39.215686%,0%);fill-opacity:1;">
  <use xlink:href="#glyph0-23" x="157.550781" y="114.441406"/>
</g>
<g style="fill:rgb(0%,39.215686%,0%);fill-opacity:1;">
  <use xlink:href="#glyph0-23" x="167.125" y="121.480469"/>
</g>
<g style="fill:rgb(0%,39.215686%,0%);fill-opacity:1;">
  <use xlink:href="#glyph0-23" x="176.699219" y="118.929688"/>
</g>
<g style="fill:rgb(0%,39.215686%,0%);fill-opacity:1;">
  <use xlink:href="#glyph0-23" x="186.273438" y="119.101562"/>
</g>
<g style="fill:rgb(0%,39.215686%,0%);fill-opacity:1;">
  <use xlink:href="#glyph0-23" x="195.847656" y="116.792969"/>
</g>
<g style="fill:rgb(0%,39.215686%,0%);fill-opacity:1;">
  <use xlink:href="#glyph0-23" x="205.421875" y="109.457031"/>
</g>
<g style="fill:rgb(0%,39.215686%,0%);fill-opacity:1;">
  <use xlink:href="#glyph0-23" x="215" y="116.414062"/>
</g>
<g style="fill:rgb(0%,39.215686%,0%);fill-opacity:1;">
  <use xlink:href="#glyph0-23" x="224.574219" y="114.742188"/>
</g>
<g style="fill:rgb(0%,39.215686%,0%);fill-opacity:1;">
  <use xlink:href="#glyph0-23" x="234.148438" y="114.371094"/>
</g>
<g style="fill:rgb(0%,39.215686%,0%);fill-opacity:1;">
  <use xlink:href="#glyph0-23" x="243.722656" y="116.421875"/>
</g>
<g style="fill:rgb(0%,39.215686%,0%);fill-opacity:1;">
  <use xlink:href="#glyph0-23" x="253.296875" y="110.613281"/>
</g>
<g style="fill:rgb(0%,39.215686%,0%);fill-opacity:1;">
  <use xlink:href="#glyph0-23" x="262.871094" y="116.191406"/>
</g>
<g style="fill:rgb(0%,39.215686%,0%);fill-opacity:1;">
  <use xlink:href="#glyph0-23" x="272.445312" y="119.800781"/>
</g>
<g style="fill:rgb(0%,39.215686%,0%);fill-opacity:1;">
  <use xlink:href="#glyph0-23" x="282.023438" y="124.050781"/>
</g>
<g style="fill:rgb(0%,39.215686%,0%);fill-opacity:1;">
  <use xlink:href="#glyph0-23" x="291.597656" y="126.828125"/>
</g>
<g style="fill:rgb(0%,39.215686%,0%);fill-opacity:1;">
  <use xlink:href="#glyph0-23" x="301.171875" y="115.714844"/>
</g>
<g style="fill:rgb(0%,39.215686%,0%);fill-opacity:1;">
  <use xlink:href="#glyph0-23" x="310.746094" y="122.792969"/>
</g>
<g style="fill:rgb(0%,39.215686%,0%);fill-opacity:1;">
  <use xlink:href="#glyph0-23" x="320.320312" y="114.046875"/>
</g>
<g style="fill:rgb(0%,39.215686%,0%);fill-opacity:1;">
  <use xlink:href="#glyph0-23" x="329.894531" y="125.480469"/>
</g>
<g style="fill:rgb(0%,39.215686%,0%);fill-opacity:1;">
  <use xlink:href="#glyph0-23" x="339.472656" y="112.101562"/>
</g>
<g style="fill:rgb(0%,39.215686%,0%);fill-opacity:1;">
  <use xlink:href="#glyph0-23" x="349.046875" y="118.347656"/>
</g>
<g style="fill:rgb(0%,39.215686%,0%);fill-opacity:1;">
  <use xlink:href="#glyph0-23" x="358.621094" y="116.730469"/>
</g>
<g style="fill:rgb(0%,39.215686%,0%);fill-opacity:1;">
  <use xlink:href="#glyph0-23" x="368.195312" y="120.285156"/>
</g>
<g style="fill:rgb(0%,39.215686%,0%);fill-opacity:1;">
  <use xlink:href="#glyph0-23" x="377.769531" y="112.558594"/>
</g>
<g style="fill:rgb(0%,39.215686%,0%);fill-opacity:1;">
  <use xlink:href="#glyph0-23" x="387.34375" y="116.347656"/>
</g>
<g style="fill:rgb(0%,39.215686%,0%);fill-opacity:1;">
  <use xlink:href="#glyph0-23" x="396.917969" y="117.113281"/>
</g>
<g style="fill:rgb(0%,39.215686%,0%);fill-opacity:1;">
  <use xlink:href="#glyph0-23" x="406.496094" y="110.695312"/>
</g>
<g style="fill:rgb(0%,39.215686%,0%);fill-opacity:1;">
  <use xlink:href="#glyph0-23" x="416.070312" y="115.773438"/>
</g>
<g style="fill:rgb(0%,39.215686%,0%);fill-opacity:1;">
  <use xlink:href="#glyph0-23" x="425.644531" y="113.640625"/>
</g>
<g style="fill:rgb(0%,39.215686%,0%);fill-opacity:1;">
  <use xlink:href="#glyph0-23" x="435.21875" y="123.296875"/>
</g>
<g style="fill:rgb(0%,39.215686%,0%);fill-opacity:1;">
  <use xlink:href="#glyph0-23" x="444.792969" y="125.222656"/>
</g>
<g style="fill:rgb(0%,39.215686%,0%);fill-opacity:1;">
  <use xlink:href="#glyph0-23" x="454.367188" y="124.648438"/>
</g>
<g style="fill:rgb(0%,39.215686%,0%);fill-opacity:1;">
  <use xlink:href="#glyph0-23" x="463.945312" y="125.527344"/>
</g>
<g style="fill:rgb(0%,39.215686%,0%);fill-opacity:1;">
  <use xlink:href="#glyph0-23" x="473.519531" y="124.578125"/>
</g>
<g style="fill:rgb(0%,39.215686%,0%);fill-opacity:1;">
  <use xlink:href="#glyph0-23" x="483.09375" y="124.035156"/>
</g>
<g style="fill:rgb(0%,39.215686%,0%);fill-opacity:1;">
  <use xlink:href="#glyph0-23" x="492.667969" y="124.132812"/>
</g>
<g style="fill:rgb(0%,39.215686%,0%);fill-opacity:1;">
  <use xlink:href="#glyph0-23" x="502.242188" y="130.988281"/>
</g>
<g style="fill:rgb(0%,39.215686%,0%);fill-opacity:1;">
  <use xlink:href="#glyph0-23" x="511.816406" y="123.585938"/>
</g>
<g style="fill:rgb(0%,39.215686%,0%);fill-opacity:1;">
  <use xlink:href="#glyph0-23" x="521.390625" y="122.886719"/>
</g>
<g style="fill:rgb(0%,39.215686%,0%);fill-opacity:1;">
  <use xlink:href="#glyph0-23" x="530.96875" y="124.019531"/>
</g>
<g style="fill:rgb(0%,39.215686%,0%);fill-opacity:1;">
  <use xlink:href="#glyph0-23" x="540.542969" y="123.148438"/>
</g>
<g style="fill:rgb(0%,39.215686%,0%);fill-opacity:1;">
  <use xlink:href="#glyph0-23" x="550.117188" y="121.960938"/>
</g>
<g style="fill:rgb(0%,39.215686%,0%);fill-opacity:1;">
  <use xlink:href="#glyph0-23" x="559.691406" y="124.042969"/>
</g>
<g style="fill:rgb(0%,39.215686%,0%);fill-opacity:1;">
  <use xlink:href="#glyph0-23" x="569.265625" y="123"/>
</g>
<path style="fill-rule:nonzero;fill:rgb(100%,100%,100%);fill-opacity:1;stroke-width:0.75;stroke-linecap:round;stroke-linejoin:round;stroke:rgb(0%,0%,0%);stroke-opacity:1;stroke-miterlimit:10;" d="M 46.15625 307.265625 L 158.726562 307.265625 L 158.726562 379.058594 L 46.15625 379.058594 Z "/>
<path style="fill:none;stroke-width:1.5;stroke-linecap:round;stroke-linejoin:round;stroke:rgb(100%,0%,0%);stroke-opacity:1;stroke-miterlimit:10;" d="M 56.949219 321.625 L 78.539062 321.625 "/>
<path style="fill:none;stroke-width:1.5;stroke-linecap:round;stroke-linejoin:round;stroke:rgb(0%,100%,0%);stroke-opacity:1;stroke-miterlimit:10;" d="M 56.949219 335.984375 L 78.539062 335.984375 "/>
<path style="fill:none;stroke-width:1.5;stroke-linecap:round;stroke-linejoin:round;stroke:rgb(0%,39.215686%,0%);stroke-opacity:1;stroke-miterlimit:10;" d="M 56.949219 350.34375 L 78.539062 350.34375 "/>
<path style="fill:none;stroke-width:1.5;stroke-linecap:round;stroke-linejoin:round;stroke:rgb(62.745098%,12.54902%,94.117647%);stroke-opacity:1;stroke-miterlimit:10;" d="M 56.949219 364.699219 L 78.539062 364.699219 "/>
<g style="fill:rgb(0%,0%,0%);fill-opacity:1;">
  <use xlink:href="#glyph0-24" x="89.335938" y="325.929688"/>
  <use xlink:href="#glyph0-8" x="96.666016" y="325.929688"/>
  <use xlink:href="#glyph0-15" x="99.332031" y="325.929688"/>
  <use xlink:href="#glyph0-14" x="106.005859" y="325.929688"/>
  <use xlink:href="#glyph0-11" x="112.679688" y="325.929688"/>
</g>
<g style="fill:rgb(0%,0%,0%);fill-opacity:1;">
  <use xlink:href="#glyph0-25" x="89.335938" y="340.289062"/>
  <use xlink:href="#glyph0-19" x="98.001953" y="340.289062"/>
  <use xlink:href="#glyph0-18" x="104.675781" y="340.289062"/>
  <use xlink:href="#glyph0-9" x="108.671875" y="340.289062"/>
  <use xlink:href="#glyph0-12" x="118.667969" y="340.289062"/>
  <use xlink:href="#glyph0-11" x="125.341797" y="340.289062"/>
</g>
<g style="fill:rgb(0%,0%,0%);fill-opacity:1;">
  <use xlink:href="#glyph0-26" x="89.335938" y="354.648438"/>
  <use xlink:href="#glyph0-14" x="97.339844" y="354.648438"/>
  <use xlink:href="#glyph0-21" x="104.013672" y="354.648438"/>
  <use xlink:href="#glyph0-13" x="110.013672" y="354.648438"/>
  <use xlink:href="#glyph0-16" x="113.347656" y="354.648438"/>
  <use xlink:href="#glyph0-27" x="116.681641" y="354.648438"/>
  <use xlink:href="#glyph0-19" x="123.355469" y="354.648438"/>
  <use xlink:href="#glyph0-18" x="130.029297" y="354.648438"/>
  <use xlink:href="#glyph0-9" x="134.025391" y="354.648438"/>
  <use xlink:href="#glyph0-12" x="144.021484" y="354.648438"/>
  <use xlink:href="#glyph0-11" x="150.695312" y="354.648438"/>
</g>
<g style="fill:rgb(0%,0%,0%);fill-opacity:1;">
  <use xlink:href="#glyph0-28" x="89.335938" y="369.003906"/>
  <use xlink:href="#glyph0-29" x="98.001953" y="369.003906"/>
  <use xlink:href="#glyph0-30" x="104.001953" y="369.003906"/>
  <use xlink:href="#glyph0-18" x="110.675781" y="369.003906"/>
  <use xlink:href="#glyph0-8" x="114.671875" y="369.003906"/>
  <use xlink:href="#glyph0-15" x="117.337891" y="369.003906"/>
</g>
</g>
</svg>
