TotalTime,GeneratorTime,ResistorTime,Period,StepPeriod
39367,39095,272,10,0.01
41647,41435,212,20,0.01
45833,45624,208,30,0.01
38821,38657,164,40,0.01
44506,44330,177,50,0.01
39374,39250,124,60,0.01
43242,43101,140,70,0.01
39384,39282,103,80,0.01
41909,41795,114,90,0.01
38896,38805,91,100,0.01
44141,44027,114,110,0.01
39776,39693,83,120,0.01
44546,44448,98,130,0.01
40348,40270,77,140,0.01
41488,41398,89,150,0.01
39972,39904,68,160,0.01
41488,41403,85,170,0.01
40517,40455,62,180,0.01
42479,42400,78,190,0.01
40428,40368,60,200,0.01
41624,41547,77,210,0.01
39704,39649,56,220,0.01
42822,42750,72,230,0.01
38883,38833,50,240,0.01
40938,40870,68,250,0.01
39411,39358,53,260,0.01
44808,44741,67,270,0.01
39392,39340,52,280,0.01
43888,43824,64,290,0.01
39560,39510,50,300,0.01
46134,46073,61,310,0.01
40289,40240,49,320,0.01
46989,46928,62,330,0.01
39448,39402,47,340,0.01
44599,44541,58,350,0.01
38746,38702,44,360,0.01
52455,52394,61,370,0.01
38761,38716,45,380,0.01
47392,47338,54,390,0.01
40070,40025,45,400,0.01
42367,42317,50,410,0.01
39234,39191,42,420,0.01
43549,43500,49,430,0.01
39466,39428,38,440,0.01
42338,42293,45,450,0.01
40128,40088,40,460,0.01
42504,42460,43,470,0.01
40278,40241,37,480,0.01
42729,42686,43,490,0.01
39237,39199,38,500,0.01
42986,42944,42,510,0.01
38760,38723,37,520,0.01
44307,44265,42,530,0.01
39248,39212,36,540,0.01
46023,45982,41,550,0.01
39271,39235,36,560,0.01
41154,41116,38,570,0.01
38702,38669,33,580,0.01
47133,47096,37,590,0.01
38604,38572,32,600,0.01
41870,41834,35,610,0.01
38795,38764,31,620,0.01
44299,44264,36,630,0.01
38594,38564,30,640,0.01
47746,47710,36,650,0.01
38663,38634,29,660,0.01
41885,41851,34,670,0.01
38822,38793,30,680,0.01
41860,41829,31,690,0.01
39293,39264,30,700,0.01
41120,41090,30,710,0.01
39219,39190,28,720,0.01
47117,47085,32,730,0.01
38746,38718,28,740,0.01
43205,43175,30,750,0.01
40784,40757,27,760,0.01
40995,40967,28,770,0.01
39245,39218,27,780,0.01
42972,42941,30,790,0.01
39845,39818,27,800,0.01
40302,40275,27,810,0.01
39213,39188,25,820,0.01
42758,42731,27,830,0.01
39826,39801,25,840,0.01
41534,41508,27,850,0.01
38761,38736,25,860,0.01
44026,43998,28,870,0.01
39746,39721,24,880,0.01
42887,42860,26,890,0.01
38959,38935,24,900,0.01
44027,44001,26,910,0.01
38814,38792,23,920,0.01
43799,43772,26,930,0.01
40968,40945,23,940,0.01
44274,44247,27,950,0.01
38464,38441,23,960,0.01
43839,43815,24,970,0.01
38825,38802,23,980,0.01
43891,43867,24,990,0.01
41298,41275,23,1000,0.01
