TotalTime,GeneratorTime,ResistorTime,Period,StepPeriod
11015,631,10384,10,0.1
10960,548,10411,20,0.1
10805,716,10089,30,0.1
11064,647,10418,40,0.1
11908,632,11275,50,0.1
11137,618,10519,60,0.1
11062,705,10356,70,0.1
10973,620,10353,80,0.1
11278,585,10693,90,0.1
11421,636,10785,100,0.1
11182,568,10615,110,0.1
11414,694,10720,120,0.1
10872,553,10319,130,0.1
10715,564,10152,140,0.1
10832,593,10239,150,0.1
10849,572,10277,160,0.1
10871,574,10297,170,0.1
10805,610,10195,180,0.1
11031,729,10303,190,0.1
11555,579,10976,200,0.1
11043,589,10454,210,0.1
10320,546,9773,220,0.1
11125,646,10479,230,0.1
11383,713,10670,240,0.1
10684,608,10076,250,0.1
11053,645,10408,260,0.1
11095,579,10516,270,0.1
10830,570,10259,280,0.1
11715,765,10950,290,0.1
10636,550,10086,300,0.1
10958,632,10325,310,0.1
11548,640,10908,320,0.1
10745,621,10124,330,0.1
10749,623,10126,340,0.1
10657,588,10069,350,0.1
11574,621,10953,360,0.1
11062,612,10450,370,0.1
10397,558,9839,380,0.1
10914,622,10292,390,0.1
11151,683,10468,400,0.1
10544,609,9935,410,0.1
10864,603,10262,420,0.1
11653,647,11007,430,0.1
10802,594,10209,440,0.1
10725,590,10135,450,0.1
11219,649,10570,460,0.1
10770,643,10127,470,0.1
11583,626,10957,480,0.1
11036,580,10456,490,0.1
10719,626,10093,500,0.1
11049,635,10414,510,0.1
11495,668,10828,520,0.1
10912,567,10345,530,0.1
10447,592,9856,540,0.1
10750,539,10210,550,0.1
10790,581,10209,560,0.1
10867,621,10246,570,0.1
10642,619,10023,580,0.1
10717,532,10185,590,0.1
11390,668,10722,600,0.1
12097,636,11461,610,0.1
11357,628,10729,620,0.1
10469,629,9840,630,0.1
13280,828,12452,640,0.1
12059,753,11306,650,0.1
10857,647,10209,660,0.1
12932,818,12114,670,0.1
11254,661,10593,680,0.1
11188,724,10463,690,0.1
10727,592,10136,700,0.1
12130,687,11443,710,0.1
11215,678,10537,720,0.1
11745,558,11188,730,0.1
10886,584,10302,740,0.1
10991,571,10420,750,0.1
11198,710,10488,760,0.1
11407,711,10696,770,0.1
10529,607,9922,780,0.1
11242,563,10680,790,0.1
11271,584,10687,800,0.1
11267,711,10556,810,0.1
10549,608,9941,820,0.1
11019,675,10344,830,0.1
11022,682,10340,840,0.1
11265,611,10654,850,0.1
10642,571,10071,860,0.1
10898,607,10291,870,0.1
10996,592,10404,880,0.1
11055,667,10388,890,0.1
10971,611,10360,900,0.1
11351,668,10683,910,0.1
10976,611,10366,920,0.1
11185,652,10533,930,0.1
10884,567,10317,940,0.1
10905,617,10288,950,0.1
11328,608,10720,960,0.1
10750,573,10176,970,0.1
11026,613,10413,980,0.1
11324,657,10667,990,0.1
11166,609,10557,1000,0.1
