TotalTime,GeneratorTime,ResistorTime,Period,StepPeriod,Steps
89342,82796,6546,2000000,9000000,1112
126433,115812,10621,10000000,9000000,1112
126533,120566,5967,100000000,9000000,1112
83507,80000,3507,1000000000,9000000,1112
