time,gen
0.0,0
0.0005,0
0.001,0
0.0015,0
0.002,0
0.0025,0
0.003,1
0.0035,1
0.004,1
0.0045,1
0.005,1
0.0055,1
0.006,0
0.0065,0
0.007,0
0.0075,0
0.008,0
0.0085,0
0.009,1
0.0095,1
0.01,1
0.0105,1
0.011,1
0.0115,1
0.012,0
0.0125,0
0.013,0
0.0135,0
0.014,0
0.0145,0
0.015,1
0.0155,1
0.016,1
0.0165,1
0.017,1
0.0175,1
0.018,0
0.0185,0
0.019,0
0.0195,0
0.02,0
0.0205,0
0.021,1
0.0215,1
0.022,1
0.0225,1
0.023,1
0.0235,1
0.024,0
0.0245,0
0.025,0
0.0255,0
0.026,0
0.0265,0
0.027,1
0.0275,1
0.028,1
0.0285,1
0.029,1
0.0295,1
0.03,0
0.0305,0
0.031,0
0.0315,0
0.032,0
0.0325,0
0.033,1
0.0335,1
0.034,1
0.0345,1
0.035,1
0.0355,1
0.036,0
0.0365,0
0.037,0
0.0375,0
0.038,0
0.0385,0
0.039,1
0.0395,1
0.04,1
0.0405,1
0.041,1
0.0415,1
0.042,0
0.0425,0
0.043,0
0.0435,0
0.044,0
0.0445,0
0.045,1
0.0455,1
0.046,1
0.0465,1
0.047,1
0.0475,1
0.048,0
0.0485,0
0.049,0
0.0495,0
0.05,0