TotalTime,GeneratorTime,ResistorTime,Period,StepPeriod,Steps
51990,4193,47797,1000000,10001
53485,4068,49417,1000000,10001
52703,4221,48482,1000000,10001
53588,3863,49725,1000000,10001
52375,4006,48369,1000000,10001
54475,4550,49925,1000000,10001
55189,4544,50645,1000000,10001
57537,4739,52798,1000000,10001
54119,4136,49983,1000000,10001
